<svg width="50" height="50" viewBox="0 0 50 50" fill="none" xmlns="http://www.w3.org/2000/svg">
<g id="icon/action/check_circle_outline_24px">
<path id="icon/action/check_circle_outline_24px_2" fill-rule="evenodd" clip-rule="evenodd" d="M25 4.16666C13.5 4.16666 4.16663 13.5 4.16663 25C4.16663 36.5 13.5 45.8333 25 45.8333C36.5 45.8333 45.8333 36.5 45.8333 25C45.8333 13.5 36.5 4.16666 25 4.16666ZM25 45C13.975 45 5 36.025 5 25C5 13.975 13.975 5 25 5C36.025 5 45 13.975 45 25C45 36.025 36.025 45 25 45ZM20.8333 32L34 18.5C34.0386 18.4614 34.0763 18.4235 34.1132 18.3863C34.853 17.6429 35.2677 17.2261 36.0416 18C36.8541 18.8125 36.8541 19.3958 36.0416 20.2083L22.3124 33.9375C21.4999 34.75 20.1874 34.75 19.3749 33.9375L13.9791 28.5416C13.9496 28.5122 13.9206 28.4832 13.892 28.4547C13.1335 27.6984 12.717 27.283 13.5 26.5C13.5316 26.4683 13.5611 26.4384 13.5888 26.4104C13.9022 26.0928 13.9937 26 14.5 26C15.0108 26 15.5289 26.5239 15.9119 26.9112C15.9421 26.9418 15.9715 26.9715 16 27L20.8333 32Z" fill="white"/>
</g>
</svg>
