{
  "date": "05/08/18",
  "time": "07:19:44",
  "id": "5af14f9074cf3fdb82d5cbfd"
}
{
  "date": "05/12/18",
  "time": "03:08:47",
  "id": "5af65abf74cf3fdb82d5d95c"
}
{
  "date": "05/15/18",
  "time": "09:26:57",
  "id": "5afaa7e174cf3fdb82d5e800"
}
{
  "date": "05/15/18",
  "time": "09:32:37",
  "id": "5afaa93574cf3fdb82d5e93c"
}
{
  "date": "05/15/18",
  "time": "09:33:39",
  "id": "5afaa97374cf3fdb82d5e940"
}
{
  "date": "05/15/18",
  "time": "09:35:59",
  "id": "5afaa9ff74cf3fdb82d5e944"
}
{
  "date": "05/15/18",
  "time": "09:37:09",
  "id": "5afaaa4574cf3fdb82d5e94e"
}
{
  "date": "05/15/18",
  "time": "09:38:16",
  "id": "5afaaa8874cf3fdb82d5e955"
}
{
  "date": "05/15/18",
  "time": "09:38:31",
  "id": "5afaaa9774cf3fdb82d5e959"
}
{
  "date": "05/15/18",
  "time": "09:40:30",
  "id": "5afaab0e74cf3fdb82d5e9e3"
}
{
  "date": "05/15/18",
  "time": "09:40:37",
  "id": "5afaab1574cf3fdb82d5e9e7"
}
{
  "date": "05/15/18",
  "time": "09:42:52",
  "id": "5afaab9c74cf3fdb82d5e9f4"
}
{
  "date": "05/15/18",
  "time": "09:45:24",
  "id": "5afaac3474cf3fdb82d5ea7b"
}
{
  "date": "05/15/18",
  "time": "09:45:29",
  "id": "5afaac3974cf3fdb82d5ea7f"
}
{
  "date": "05/15/18",
  "time": "09:47:36",
  "id": "5afaacb874cf3fdb82d5ec17"
}
{
  "date": "05/17/18",
  "time": "05:43:05",
  "id": "5afd166974cf3fdb82d5f45a"
}
{
  "date": "05/17/18",
  "time": "08:54:25",
  "id": "5afd434174cf3fdb82d5f4ed"
}
{
  "date": "05/17/18",
  "time": "08:57:33",
  "id": "5afd43fd74cf3fdb82d5f574"
}
{
  "date": "05/21/18",
  "time": "06:08:32",
  "id": "5b02626074cf3fdb82d60285"
}
{
  "date": "05/21/18",
  "time": "06:19:08",
  "id": "5b0264dc74cf3fdb82d6028c"
}
{
  "date": "05/23/18",
  "time": "03:19:11",
  "id": "5b04ddaf74cf3fdb82d61277"
}
{
  "date": "05/23/18",
  "time": "03:22:52",
  "id": "5b04de8c74cf3fdb82d61284"
}
{
  "date": "05/23/18",
  "time": "03:24:54",
  "id": "5b04df0674cf3fdb82d6130e"
}
{
  "date": "05/23/18",
  "time": "03:28:08",
  "id": "5b04dfc874cf3fdb82d61395"
}
{
  "date": "05/23/18",
  "time": "03:29:49",
  "id": "5b04e02d74cf3fdb82d6139f"
}
{
  "date": "05/23/18",
  "time": "03:31:35",
  "id": "5b04e09774cf3fdb82d613a6"
}
{
  "date": "05/23/18",
  "time": "03:32:10",
  "id": "5b04e0ba74cf3fdb82d613ad"
}
{
  "date": "05/25/18",
  "time": "04:16:58",
  "id": "5b078e3a74cf3fdb82d6265f"
}
{
  "date": "05/25/18",
  "time": "04:17:11",
  "id": "5b078e4774cf3fdb82d62663"
}
{
  "date": "05/25/18",
  "time": "04:40:52",
  "id": "5b0793d474cf3fdb82d626ea"
}
{
  "date": "05/25/18",
  "time": "04:41:08",
  "id": "5b0793e474cf3fdb82d626ee"
}
{
  "date": "05/25/18",
  "time": "04:43:25",
  "id": "5b07946d74cf3fdb82d626f5"
}
{
  "date": "05/25/18",
  "time": "04:58:03",
  "id": "5b0797db74cf3fdb82d62a6d"
}
{
  "date": "05/25/18",
  "time": "04:58:10",
  "id": "5b0797e274cf3fdb82d62aee"
}
{
  "date": "05/25/18",
  "time": "07:25:50",
  "id": "5b07ba7e74cf3fdb82d6320c"
}
{
  "date": "05/25/18",
  "time": "07:25:58",
  "id": "5b07ba8674cf3fdb82d63210"
}
{
  "date": "05/25/18",
  "time": "07:28:57",
  "id": "5b07bb3974cf3fdb82d6321a"
}
{
  "date": "05/25/18",
  "time": "07:29:11",
  "id": "5b07bb4774cf3fdb82d6321e"
}
{
  "date": "05/25/18",
  "time": "07:31:36",
  "id": "5b07bbd874cf3fdb82d6322b"
}
{
  "date": "05/25/18",
  "time": "07:31:47",
  "id": "5b07bbe374cf3fdb82d6322f"
}
