{"nameTH":"นายอำรัน มิง","id":"5960500028101","dob":"18 ธันวาคม 2524","remark":"","passportNo1":""}
{"nameTH":"นายอาหามะ กาเจ","id":"3960300015620","dob":"9 ตุลาคม 2521","remark":"เพิกถอนออกจากรายชื่อ บุคคล ที่ถูกก าหนด ตามประกาศ พ.ปกร.ที่ 12559ลว. 13 ก.ย.2559","passportNo1":""}
{"nameTH":"นายอับดุลเล๊าะฮ์ มะ มิง","id":"3960500206046","dob":"1 กรกฎาคม 2525","remark":"","passportNo1":""}
{"nameTH":"นายแอ มะแซ","id":"3960700103038","dob":"16 เมษายน 2524","remark":"","passportNo1":""}
{"nameTH":"นายรอวี หะยีดิง","id":"2960400008139","dob":"7 พฤษภาคม 2530","remark":"","passportNo1":""}
{"nameTH":"นายมะดารี วาหลง","id":"3960400260561","dob":"22 มิถุนายน 2519","remark":"","passportNo1":""}
{"nameTH":"นายอับดุลตอเละ บาเย๊าะกาเซ๊ะ","id":"3960500431031","dob":"20 มกราคม 2526","remark":"","passportNo1":""}
{"nameTH":"นายเตาฟีก โต๊ะเล๊าะ","id":"1960100084711","dob":"19 ตุลาคม 2532","remark":"","passportNo1":""}
{"nameTH":"นายมะซูปียัน ยะกูมอ","id":"3950600330318","dob":"18 มิถุนายน 2517","remark":"","passportNo1":""}
{"nameTH":"นายมาหะมะ  มะเด็ง","id":"3960400173341","dob":"27 มีนาคม2524","remark":"เพิกถอนออกจากรายชื่อ บุคคลที่ถูก ก าหนดตามประกาศ พ.ปกร.ที่ 22559 ลว. 13 ก.ย. 2559","passportNo1":""}
{"nameTH":"นายมะตอเพะ มาลายอ","id":"2960500035928","dob":"1 กันยายน 2529","remark":"","passportNo1":""}
{"nameTH":"นายอูสนี บาโด","id":"1960500003700","dob":"20 มกราคม 2527","remark":"","passportNo1":""}
{"nameTH":"นายบารอวี เจ๊ะแม","id":"3960500669526","dob":"10 ธันวาคม 2525","remark":"","passportNo1":""}
{"nameTH":"นายอาบะห์ เจะอาลี","id":"3950100119014","dob":"15 มิถุนายน 2522","remark":"","passportNo1":""}
{"nameTH":"นายบูคอรี ฮะมะ","id":"5950600002058","dob":"3 ธันวาคม 2525","remark":"","passportNo1":""}
{"nameTH":"นายมะยากี บือราเฮง","id":"3950100117623","dob":"5 กุมภาพันธ์ 2525","remark":"","passportNo1":""}
{"nameTH":"นายมะนุ๊ มามะ","id":"3960500083971","dob":"12 พฤษภาคม 2514","remark":"","passportNo1":"OX0312485(วันหมดอายุ 08022004)"}
{"nameTH":"นายกูลี ลือบา","id":"5960500023401","dob":"20 ธันวาคม 2519","remark":"","passportNo1":"OX0319834(วันหมดอายุ 20042004)"}
{"nameTH":"นายกามารูดิง ขะเดหมะ","id":"3950100151449","dob":"20 มีนาคม 2526","remark":"","passportNo1":""}
{"nameTH":"นายลุกมัน แปแนะ","id":"3960500042264","dob":"30 กรกฎาคม2513","remark":"","passportNo1":"1. ON0110517(วันหมดอายุ 11021997)2. OJ0308545(วันหมดอายุ 08022002)3.OT0425800(วันหมดอายุ 21012007)4.OC0819857(วันหมดอายุ 11102014)"}
{"nameTH":"นายมะยูดิง หะยีสะนิ","id":"1960600031624","dob":"8 มีนาคม 2529","remark":"เพิกถอนออกจากรายชื่อบุคคลที่ถูก ก าหนดตาม ประกาศ พ.ปกร.ที่ 32560 ลว. 16 พ.ค. 2560","passportNo1":""}
{"nameTH":"นายอับดุลบาซิค ยูนุ","id":"1961100007482","dob":"4 กันยายน2527","remark":"","passportNo1":"1. OM0429418(วันหมดอายุ 07042006)ชื่อ – สกุล ตามหนังสือ เดินทางฉบับนี้ คือ ABDULBASIK YUNU 2. OM0633763(วันหมดอายุ 03042011)"}
{"nameTH":"นายซัฟวานสาแล๊ะ","id":"1960600011348","dob":"5 พฤษภาคม2527","remark":"","passportNo1":""}
{"nameTH":"นายอับดุลเลาะตาเปาะโต๊ะ","id":"5950301047882","dob":"29 สิงหาคม2529","remark":"","passportNo1":""}
{"nameTH":"นายปาตะ ลาเต๊ะ","id":"1940400043327","dob":"20 กุมภาพันธ์ 2531","remark":"เพิกถอนออกจากรายชื่อ บุคคล ที่ถูกก าหนด ตามประกาศ พ.ปกร.ที่ 12560ลว. 5 พ.ค.2560","passportNo1":""}
{"nameTH":"นายอาหาหมัด ดือราแม","id":"5940600017845","dob":"1 มกราคม 2529","remark":"เพิกถอนออกจากรายชื่อ บุคคล ที่ถูกก าหนด ตามประกาศ พ.ปกร.ที่ 22560ลว. 5 พ.ค.2560","passportNo1":""}
{"nameTH":"นายอับดุลฮาดีดาหาเล็ง","id":"3940900197851","dob":"4 มกราคม2521","remark":"","passportNo1":""}
{"nameTH":"นายมะรูดิน ตาเฮ","id":"1940400002884","dob":"7 พฤษภาคม 2527","remark":"เพิกถอนออกจากรายชื่อ บุคคล ที่ถูกก าหนด ตามประกาศ พ.ปกร.ที่ 52560ลว. 21 ส.ค.2560","passportNo1":""}
{"nameTH":"นายต่วนยัสลันนิราแม","id":"1961100075089","dob":"24 ธันวาคม2534","remark":"","passportNo1":""}
{"nameTH":"นายราฟีมามะรอยาลี","id":"2961100014819","dob":"19 กันยายน2529","remark":"","passportNo1":""}
{"nameTH":"นายยาสะ ดาแม","id":"1950100004008","dob":"22 มีนาคม2527","remark":"","passportNo1":""}
{"nameTH":"นายรอกิ ดอเลาะ","id":"2950100016730","dob":"4 เมษายน2527","remark":"","passportNo1":""}
{"nameTH":"นายสะกรีดอเลาะ","id":"3950100571502","dob":"23 พฤษภาคม2525","remark":"","passportNo1":""}
{"nameTH":"นายกอเซ็ง มิยะ","id":"3950600147947","dob":"18 เมษายน2520","remark":"","passportNo1":""}
{"nameTH":"นายซัยฟุลลอฮ ซาฟรุ","id":"3950600175711","dob":"20 มีนาคม2525","remark":"","passportNo1":""}
{"nameTH":"นายนัชดาน ยะลาแป","id":"2950500009706","dob":"8 กุมภาพันธ์2526","remark":"","passportNo1":""}
{"nameTH":"นายมูฌาฮีดีนสาตา","id":"1969800006451","dob":"30 กรกฎาคม2527","remark":"","passportNo1":""}
{"nameTH":"นายซัมบรี ยุนุ","id":"3950100067227","dob":"17 มิถุนายน2526","remark":"","passportNo1":""}
{"nameTH":"นายมะซูการือนอ ยะกูมอ","id":"3950600347636","dob":"20 พฤศจิกายน 2526","remark":"เพิกถอนออกจากรายชื่อ บุคคล ที่ถูกก าหนด ตามประกาศ พ.ปกร.ที่ 42560ลว. 10 ส.ค.2560","passportNo1":""}
{"nameTH":"นายลุกมานปูลาประเปะ","id":"1950300017316","dob":"10 มีนาคม2529","remark":"","passportNo1":""}
{"nameTH":"นายรูกิปลี สาอิ","id":"3940200358070","dob":"30 มีนาคม2521","remark":"","passportNo1":""}
{"nameTH":"นายสุกรียา เดมะ","id":"3941100096953","dob":"20 กุมภาพันธ์2521","remark":"","passportNo1":"T426805"}
{"nameTH":"นายอาหามะจาจ้า","id":"3940500277008","dob":"10 ธันวาคม2513","remark":"","passportNo1":"1. C259743(วันหมดอายุ 26091996)2. I300991(วันหมดอายุ"}
{"nameTH":"นายกามารูดิงมูซอ","id":"5940200003251","dob":"2 พฤศจิกายน2526","remark":"","passportNo1":""}
{"nameTH":"นายอับดุลอาซิแอเสาะ","id":"1940500046361","dob":"27 ธันวาคม2530","remark":"","passportNo1":"P721024(วันหมดอายุ 07022013)"}
{"nameTH":"นายมาโซสาและเร๊ะ","id":"3950600328828","dob":"1 มกราคม2518","remark":"","passportNo1":"I351445(วันหมดอายุ 11092002)"}
{"nameTH":"นายซูลายมันยะกูมอ","id":"5950600018035","dob":"16 มีนาคม2523","remark":"","passportNo1":"E483255(วันหมดอายุ 27092005)"}
{"nameTH":"นายอายุ อัตนิ","id":"5950699000834","dob":"5 กุมภาพันธ์2516","remark":"","passportNo1":""}
{"nameTH":"นายมะกะตาแวอาแซ","id":"5950600018973","dob":"22 มีนาคม2517","remark":"","passportNo1":""}
{"nameTH":"นายอายุหะยีบากา","id":"5950600026241","dob":"15 มกราคม2520","remark":"","passportNo1":""}
{"nameTH":"นายกูอาสมัน ดอฆอ","id":"3950100528046","dob":"15 ธันวาคม2526","remark":"","passportNo1":""}
{"nameTH":"นายสูดิรมานจารง","id":"3950600094991","dob":"8 พฤษภาคม2525","remark":"","passportNo1":""}
{"nameTH":"นายนาวาวี ลาโบปี","id":"1941000089169","dob":"28 ตุลาคม2529","remark":"","passportNo1":""}
{"nameTH":"นายมะซอเรดือรามะ","id":"3940100174422","dob":"7 กรกฎาคม2522","remark":"","passportNo1":""}
{"nameTH":"นายมูฮาหมัดนูรูดิง มะรอแม","id":"3940100115434","dob":"9 กันยายน2518","remark":"","passportNo1":""}
{"nameTH":"นายมูฮ ามัด ซีตีเลาะ","id":"3940100401941","dob":"7 ธันวาคม 2523","remark":"เพิกถอนออกจากรายชื่อ บุคคล ที่ถูกก าหนด ตามประกาศ พ.ปกร.ที่ 62560ลว. 6 ก.ย.2560","passportNo1":""}
{"nameTH":"นายฮาพีซียูโซะ","id":"3950100106737","dob":"19 กรกฎาคม2524","remark":"","passportNo1":""}
{"nameTH":"นายมะกอเซ็ง เจ๊ะมะ","id":"3950100175151","dob":"8 มกราคม2521","remark":"","passportNo1":""}
{"nameTH":"นายมาหามะ แมเร๊าะ","id":"2960600016577","dob":"1 มกราคม2530","remark":"","passportNo1":""}
{"nameTH":"นายซอบรี บือแน","id":"3940500209142","dob":"19 ธันวาคม 2526","remark":"เพิกถอนออกจากรายชื่อ บุคคล ที่ถูกก าหนด ตามประกาศ\"พ.ปกร.ที่ 12561 ลว. 21 พ.ค. 2561","passportNo1":""}
{"nameTH":"นายรุสลันใบมะ","id":"3900300487696","dob":"21 กันยายน2523","remark":"","passportNo1":""}
{"nameTH":"นายซัมซูดิง บาเหม","id":"3900600233754","dob":"3 พฤศจิกายน2521","remark":"","passportNo1":""}
{"nameTH":"นายอารง สะอิ","id":"3900600237580","dob":"17 กุมภาพันธ์2526","remark":"","passportNo1":""}
{"nameTH":"นายเมาลานาสาเมาะ","id":"1940300012861","dob":"14 กันยายน2527","remark":"","passportNo1":""}
{"nameTH":"นายเสรี แวมามุ","id":"1949900023927","dob":"21 เมษายน2528","remark":"","passportNo1":"V447810(วันหมดอายุ 27022007)"}
{"nameTH":"นายรอมลี รอแน็ง","id":"1940300016379","dob":"20 มกราคม2528","remark":"","passportNo1":"V449148(วันหมดอายุ 04032007)"}
{"nameTH":"นายจ าเริญ อูมาสะ","id":"3900500097107","dob":"2 ตุลาคม 2516","remark":"","passportNo1":"I318062(วันหมดอายุ 16121998)"}
{"nameTH":"นายมะรีเป็ง มะหะ","id":"3940900550534","dob":"18 พฤษภาคม2522","remark":"","passportNo1":"R379524(วันหมดอายุ 10042005)"}
{"nameTH":"นายมะยูนิ สาแม","id":"3940900508813","dob":"17 กันยายน2524","remark":"","passportNo1":""}
{"nameTH":"นายดอเลาะ ดอเลาะ","id":"3940900560262","dob":"16 เมษายน2510","remark":"","passportNo1":"1. K213406(วันหมดอายุ 17101998)2. J324069(วันหมดอายุ 19082002)3. S688892(วันหมดอายุ 08102008)"}
{"nameTH":"นายอับดุลอายิ ดอเลาะ","id":"3940900560343","dob":"30 ตุลาคม2525","remark":"","passportNo1":"1. M536377(วันหมดอายุ 10102007)2. C799218(วันหมดอายุ 08102008)"}
{"nameTH":"นายวาครี มะโระ","id":"3940900506268","dob":"1 มกราคม2507","remark":"","passportNo1":""}
{"nameTH":"นายอะมะ ดือเระห์","id":"3940900522565","dob":"21 มิถุนายน2521","remark":"","passportNo1":"R322226(วันหมดอายุ 11022003)"}
{"nameTH":"นายนูรอดิง อับดุลลาตี","id":"3960400028880","dob":"1 กันยายน2520","remark":"","passportNo1":""}
{"nameTH":"นายอาดือนัน เจะอาแซ","id":"3940900564641","dob":"1 มกราคม2515","remark":"1. N115628(วันหมดอายุ 16021997) 2. x316086(วันหมดอายุ 08102008)","passportNo1":""}
{"nameTH":"นายมะยากี เจะฮิง","id":"3940900387790","dob":"23 เมษายน2524","remark":"","passportNo1":""}
{"nameTH":"นายอับดุลการิม สาแม","id":"1940900023422","dob":"20 กรกฎาคม2528","remark":"","passportNo1":""}
{"nameTH":"นายอัซรันอาแวบือซา","id":"1960500237859","dob":"2 กรกฎาคม2536","remark":"","passportNo1":"P725737(วันหมดอายุ 21022013)"}
{"nameTH":"นายดือราพา เจ๊ะอูมา","id":"1960500017913","dob":"15 กันยายน2527","remark":"","passportNo1":""}
{"nameTH":"นายอิสยาซะห์หะแย","id":"5940100018842","dob":"17 พฤษภาคม2526","remark":"","passportNo1":""}
{"nameTH":"นายซารีซานอัมรีดือราแม","id":"3900600190397","dob":"15 กุมภาพันธ์2525","remark":"","passportNo1":""}
{"nameTH":"นายนูรุดดินกาจะลากี","id":"3950300049087","dob":"9 มกราคม2524","remark":"","passportNo1":""}
{"nameTH":"นายสุไลมาน สาเหมาะ","id":"3940200650048","dob":"5 ตุลาคม 2524","remark":"","passportNo1":""}
{"nameTH":"นายมูฮาหมัดนูร ตูหยง","id":"5941000022903","dob":"","remark":"V791823(วันหมดอายุ 05102013)","passportNo1":"25 พฤษภาคม2533"}
{"nameTH":"นายฮิลมี ยะลาแป","id":"2950500009714","dob":"","remark":"","passportNo1":"11 พฤศจิกายน2527"}
{"nameTH":"นายอับดลเล๊าะ สาเม๊าะ","id":"3900600227444","dob":"","remark":"","passportNo1":"5 กุมภาพันธ์2517"}
{"nameTH":"นายมะรอพีบือราเฮง","id":"3961200139662","dob":"","remark":"H550764(วันหมดอายุ 04022008)","passportNo1":"13 พฤศจิกายน2524"}
{"nameTH":"นายมะรอมือลีกาแจกาซอ","id":"3960300333664","dob":"16 ธันวาคม2526","remark":"","passportNo1":""}
{"nameTH":"นายมะรุดิง สามะ","id":"3940300184260","dob":"2 เมษายน2524","remark":"","passportNo1":"W640889(วันหมดอายุ 25102011)"}
{"nameTH":"นายมนูญ ชัยชนะหรืออเนก หรือเอนก หรือต๋อย หรือต้อย ซานฟราน","id":"3100601119863","dob":"15 ตุลาคม2498","remark":"","passportNo1":""}
{"nameTH":"นายมูฮ ามัด ขาเดร์","id":"3960500499299","dob":"5 กรกฎาคม2520","remark":"","passportNo1":"I369615(วันหมดอายุ 24122002)"}
{"nameTH":"นายอาแว สามะ","id":"1960500142050","dob":"2 มีนาคม 2532","remark":"","passportNo1":""}
{"nameTH":"นายมาหะมะซอบือรีกรือสง","id":"3960500370652","dob":"11 มีนาคม2523","remark":"","passportNo1":"H429909(วันหมดอายุ 13072005)"}
{"nameTH":"นายอารง ดือราแม","id":"3960500462832","dob":"1 มกราคม2511","remark":"","passportNo1":""}
{"nameTH":"นายไรนาอาบีเด็งสามะ","id":"3960100366194","dob":"22 พฤษภาคม2524","remark":"","passportNo1":"1. M419238(วันหมดอายุ 18012006) 2. J634685(วันหมดอายุ 15122010)"}
{"nameTH":"นายอัฎฮาร์ ยูกะ","id":"1960300062176","dob":"27 มิถุนายน2533","remark":"","passportNo1":"N981277(วันหมดอายุ 06062016)"}
{"nameTH":"นายดาราแมง อูมา","id":"1960300006306","dob":"12 สิงหาคม2527","remark":"","passportNo1":""}
{"nameTH":"นายอับดุลเลาะ อูแล","id":"2960300011120","dob":"11 พฤษภาคม2528","remark":"","passportNo1":""}
{"nameTH":"นายคอเละ เซ็ง","id":"1960400032007","dob":"5 มิถุนายน2529","remark":"","passportNo1":""}
{"nameTH":"นายมูฮ ามัดใบฮาดีวาเฮ็ง","id":"3961100347921","dob":"10 สิงหาคม2515","remark":"","passportNo1":""}
{"nameTH":"นายฮากีม ดอเลาะ","id":"1940100006302","dob":"17 มีนาคม2527","remark":"","passportNo1":""}
{"nameTH":"นายมูหาหมัดยากีสาและ","id":"5950300029139","dob":"1 กุมภาพันธ์2524","remark":"","passportNo1":""}
{"nameTH":"นายอัสมีนกาเต็มมาดี","id":"1949900081749","dob":"18 กรกฎาคม2530","remark":"","passportNo1":""}
{"nameTH":"นายอัมมัร แวดาราแม","id":"1940900113006","dob":"18 เมษายน2531","remark":"","passportNo1":"1. C756983(วันหมดอายุ 17042012) 2. AA1774201(วันหมดอายุ 09062018)"}
{"nameTH":"นายรอแปะอิง อุเซ็ง","id":"5960600017730","dob":"9 กันยายน2512","remark":"","passportNo1":"E241352(วันหมดอายุ 01021998)"}
{"nameTH":"นายอาซูวัน ลุมโมะ","id":"2950800001468","dob":"20 กุมภาพันธ์2533","remark":"","passportNo1":""}
{"nameTH":"น า ย อ า ห ะ มั ดลือแมซา","id":"3941000308045","dob":"24 มีนาคม2523","remark":"","passportNo1":"X322228(วันหมดอายุ 17052004)"}
{"nameTH":"นายมารซูกี ยูโสะ","id":"3950300053459","dob":"30 ธันวาคม2514","remark":"","passportNo1":""}
{"nameTH":"น า ย ม า ห ะ ม ะ อาหลีดองอย","id":"2950800006222","dob":"1 มกราคม2538","remark":"","passportNo1":""}
{"nameTH":"นายเฟาซี กลูแป","id":"3950300233279","dob":"10 ตุลาคม2525","remark":"","passportNo1":""}
{"nameTH":"นายสือดี ปูเดะ","id":"1960500112991","dob":"26 กันยายน2530","remark":"","passportNo1":""}
{"nameTH":"นายมะเซาฟี ตีโม","id":"1960500096783","dob":"24 ธันวาคม2529","remark":"","passportNo1":""}
{"nameTH":"นายมูฮามะซูลกีฟลี สือแม","id":"3960500342284","dob":"7 ธันวาคม2520","remark":"","passportNo1":""}
{"nameTH":"นายมูฮ าหมัดซากีรีน สาแม","id":"1961200061853","dob":"5 เมษายน2535","remark":"","passportNo1":""}
{"nameTH":"น า ย อั บ ดุ ล ก า รี หะแว","id":"3950600289903","dob":"8 มกราคม2516","remark":"","passportNo1":"1. A247776(วันหมดอายุ 16072000) 2. M445149(วันหมดอายุ 15072006)"}
{"nameTH":"นายมาฮาดี มะเก","id":"1969900096088","dob":"14 กันยายน2531","remark":"","passportNo1":""}
{"nameTH":"น า ย อั บ ดุ ล เล า ะ บูละ","id":"2961200018689","dob":"1 มกราคม2528","remark":"","passportNo1":""}
{"nameTH":"นายอาสือรี เจ๊ะตู","id":"2961200006664","dob":"1 มกราคม2526","remark":"","passportNo1":""}
{"nameTH":"นายอับดุลเลาะ ตีงี","id":"3960500651228","dob":"3 ตุลาคม 2518","remark":"","passportNo1":"T292283(วันหมดอายุ 17072001)"}
{"nameTH":"นายอาลียะห์ เจะเตะ","id":"3960100049881","dob":"27 กันยายน2518","remark":"","passportNo1":"R386583(วันหมดอายุ 06032005)"}
{"nameTH":"นายรอยาลี อาแว","id":"3960500361238","dob":"21 กันยายน2523","remark":"","passportNo1":""}
{"nameTH":"นายอูเซ็ง มามะ","id":"2960500007096","dob":"1 มกราคม2524","remark":"","passportNo1":""}
{"nameTH":"นายอายิ ยามา","id":"2960500021617","dob":"20 กุมภาพันธ์2525","remark":"","passportNo1":""}
{"nameTH":"นายซอและ มะเซ็ง","id":"3941100060681","dob":"7 มกราคม2525","remark":"","passportNo1":""}
{"nameTH":"นายมะรอยาลี สะนิ","id":"3960200435295","dob":"8 กรกฎาคม2525","remark":"","passportNo1":""}