#	,rererence no,id,fname,lname,isValidDopa,dopaRemark1s,isValidFace,facePct,isValidLED,ledDesc,ledDtm,isValidAML,amloCode,amloDesc
1,01F3B5KKS5JAHAHQ0W3RYR3E8V
2,01F3FFS5JKVK09PMDAYGDNER6X
3,01F3D26A0MC50N5R7H1SPSZMBB
4,01F3FF2WV307RX275NCAJH0H05
5,01F3FGAS4FH4E1CZW6NQJ091HF
6,01F3FGBY55SGWDMWVQGCM0AQ34
7,01F3FG27EZMM4MG33Z79MWXG5A
8,01F3FGQ29K9T8093GVYWS8M6K8
9,01F3FGN8EVM6JB7SBDVEGCBAYJ
10,01F3FH4V7FXCAG0M2F5JMN701N
11,01F3FH5XZ6FHNKPK51MBJ759Z7
12,01F37WPQEW4D6TBKB4S5FS6YWY
13,01F3FFV71PVR6G40XFD595SNG2
14,01F3FFEZN0A5RJVMYF3ENXJ649
15,01F3FHJRQH1ZHE0MA7T0YTDGRJ
16,01F3FJCPQYTHB2M3MZMVNYGT7K
17,01F3FJ5205Y71MEZEKV78T9X4Q
18,01F3FJJW6BP2C3RCM2638AMBJZ
19,01F3FJVJKG4TA0K6XM23TKW2CJ
20,01F3FKBCN8CJ91A923D100386Z
21,01F3FKRXAAPPVX5X2NBPYRZHCG
22,01F3FARY2XNPE89B89E0BZCW6Z
23,01F3FKB1G9QE67XZDM6G4JQEN1
24,01F3FKV7ZM0E1PMVWDW5HFDRHJ
25,01F3F64WTH35YNC9N5STPF6XHY
26,01F3FKN7DY5G56ZQNCQDS54SC9
27,01F3FKC6ST1Y1DA8ERXF1PASVW
28,01F3ERWMY67DKY0RHTZF1BP0KX
29,01F3FKWT0TT2BBJ3M2EP64J849
30,01F3FMQ9XKT3PQ8BJJZKZFAD2G
31,01F3FM4BA3ZP8AB4AJDD9CTA8J
32,01F3FN2D55A1CJZ6KSP0NWVBZZ
33,01F3FN7ZQASV56WGQ3TJ29PT4C
34,01F3FNJEPENAFX5YEY772RENB5
35,01F3FNX284FYVP2AFR75TAZFMH
36,01F3FP1AH52Q5Y84VAXTZ9DT3M
37,01F3FP7P542WV6DY9ZVPXHPTC0
38,01F3FPEFD02PVT91Z527VTT0ZE
39,01F3FPNWCGVTW741P5X3YTC6BV
40,01F3FP81QWRVEF7D4K8KQDTJRN
41,01F3FNH5B40Z787WMDD895DWAR
42,01F35W62RRAK3WMZH2NKX4E5WJ
43,01F39VFMHSARS90PGPK76NBPSW
44,01F3FQ03769ZJWXYHK4SC08TQH
45,01F3FPSXYH1KJ0G8SEF61D8QNP
46,01F3FQ6YNPVKJ86XYVZY4570NH
47,01EJ1QJJ6130S5V7ZKS7JGWRB8
48,01F3FQBQXR78K89G6Y016R2VTF
49,01F0D3BSMZW4GSQ0M94SHW0M2G
50,01F3FQM87H1CD4FYDG370CDHKG
51,01F3DKX68Y1KNXNR5D6130AKQB
52,01F3FRDQRGQPNMVXVQ6JJBDMW7
53,01F3ZT349QF7XTFWGMEYBXA0TF
54,01EY63S215RQQJKXHEHN8DVH6V
55,01F41XA6AKS1TA3P48WSC451JB
56,01F41XB1H15BA7BRQ8VP6H3RR3
57,01F41WS9JPHN1805QJ1ZEB5AQT
58,01F41Y23W9JKR1W6RT7GK8Z2WK
59,01F41D6Y3AFDAC263TQZDE2XFA
60,01F41ZNRXM85Z9TP6AW929XTK2
61,01F42053BNS6BZQBGMXWR344D6
62,01F421TAWXMD3HDVQ8BENZCSQW
63,01F422E1Y65YFZSW8DHFB1NBB6
64,01F419DYN3HJ0NWBP7CNP83QZB
65,01F415K67YTSZ6MWEF3C551EGB
66,01F426J9ZEXP9C8WZDC1AF5V0Q
67,01F4268SV1GXAX8QJ0X8DZJCDT
68,01F4273PBJ5ZWPTTCVCPH8K5DR
69,01F428711MC9WRCN23DWX0V2AF
70,01F2P25EK2DX4FAPKJ145R9G7B
71,01F42ASETGRHMQQJEYXSZ4Q8HW
72,01F42DXS904HXKV8K90TTPBJ9Y
73,01F42EJPMHA7DMH9KV9WXB0Y98
74,01F2RPYVAK9D068XX07K7TJ976
75,01F43CQCGB9A7GCKAGRXGFJN4Y
76,01F43FDZ4Q95BYZGZPV5TDNT35
77,01F43JKTQQ5EF8XPVNHN0DQAHH
78,01F43K8XVD6ZS9D246DVYE75K3
79,01F43KB6DFRB08AN2YBV2V5X5N
80,01F3F29YW1JCW56WB8JR8K5SN6
81,01F41DMCE2AQBZG4W63XJYW1M9
82,01F43KSHFEK14F8SQ2W5VW97TY
83,01F40ZQQXQ6YB6CFPP3JK2DE52
84,01F38820SD7VMVC2TWRKBQTSWP
85,01F43QVNT31QXP61NG4QJC8XYA
86,01F3FXFQDEYNH4HMZ82WNX5WFT
87,01F43SM96QV9KTG76KCTNQ4A8F
88,01F43SGMH1VP66Y57MJTFQ4DZA
89,01F43SZ4T6T022NPGQ9NYXZ4MV
90,01F43V4BY4DNAEHS00C7WG8HRY
91,01F43TFA025J2X732BVC8YF3HC
92,01F2XXX895JK8GYJ6B8K972X1W
93,01F43VWZCB51C52WH8WR6GJH9J
94,01F43WGP3P8KWTWRJZ490APK5R
95,01F3DQVVQSJTSF6STJGHYF90JH
96,01F3FAC5VQJQAZZP478DWV4WBH
97,01F3D23S4D9922SZR4GTGVT17K
98,01F3D2D3X9ADX916HHG16QPXQS
99,01F3DTX7C4YAYEM0PNT15QQQFR
100,01F3DVHNA5FT7Z8CC8KKV4BD6Y
101,01F3DY4TDEGG03CYQ59SK83GD3
102,01F3C2WPC8MBKFVP6BGY63E5HC
103,01F43T0BDSV58XGX4542YAAS65
104,01F3D86SXWXSN25DHXZDH3S6XT
105,01F3DT8ZM9XN07300X20J1BM9X
106,01F3EG44GPD3YG1ZSXYGMF2T8R
107,01F05ARNBTCF2SNP2JG0SSFVBW
108,01F3EJJEGNMSV1ERAWRS64QDHN
109,01F3CTZRK6GB1J086HYJ2BAVNJ
110,01F3DS7MEDQ0X0G6P3HRW5E013
111,01F3EQ9HF43RNGSGWJCP8JJ9RX
112,01F3EQWNR7DWTJ4VBQ6DDP8WSG
113,01F3EQZYT2C7NKXF9DNAVA0702
114,01F3DHNHXSEVN7SBSV2VXHFNMV
115,01F3ERFYV45QZ7X0BME980CM3F
116,01F3ESMWJX42PAE0DX4P4TJQMQ
117,01F3ESASQ8M9Q05Z7NQ6ZYQD3K
118,01F3ESST5RTRQ5YQDKB1RAMCP8
119,01F336KB79EH3625NEGDYGCGRW
120,01F3ETDGF1ZBAFGPSW441KM23D
121,01F3CR20H77QGWDXNEYK2PWM8D
122,01F3EV6RHM26K27ZSXKJP1NH4T
123,01F3EVTGVKC5B27T4BTPFH8XH7
124,01F3EW732SAY5BAYV0SGYNETB3
125,01F38BN0JD1Y7HZ12FSYK6AKJD
126,01F3EW8AG6BN83XD2RFQJ4M52C
127,01F3CCG5KTJVEDB57D16HG3YT4
128,01F3EXNX6Z0CAYPM6Y1ZKJ03G5
129,01F34DXFW14JYW6WCEEVH6XBMX
130,01F3HV2Y4Q7Q85XHPX8SAASTH4
131,01F3HTNPQ6WHPNZXKX3SPDFT0Y
132,01F3HVRXNKBTGXMH8HSX5TR5XJ
133,01F3HQKA588NCRS797253G4K9M
134,01EMKVTVB6H0DZ8K8QF9H41WVQ
135,01F3HVSSKJFEPAHE73G2KQG8YB
136,01EZ60YG293BQ2KRGQQ1VQ48PQ
137,01F3HVN8PY3MWK9AZ9CPJMY6FM
138,01F3HVQG408VP1EKC33FD5F97K
139,01F3HRHG3MZZJWGGAHF1F23X0B
140,01F3HVANS9R2GYXCSF98PR1BJE
141,01F3HWNRQ0Q2PM92JD910CB7HB
142,01F3HSVPZTSBQ7YF653EFW6BEX
143,01F3HX9YP902CWKD2AH8H3AKJV
144,01F3HXFS6243EZN0PPRY8R6N30
145,01F3G5TKASHWJSQPJWSC7QBJMK
146,01F3HXTPSKB524W504KSQY9FH0
147,01F3HXW44PPNJMXNSNHRQ683DK
148,01F3HYD5Q83MEG1CDFK3JH8BEH
149,01F43XJYKR6434HZ4XYYER55XB
150,01F3WM8EX7Z43M2GTYSV76WNX3
151,01F3HE1MVTJ1911KXD70KH12PX
152,01F3HYX9ES6SN73EQGA53FR5ST
153,01F43YE7HYP7FSM3B2CSGVXCS4
154,01F43ZJA3HY90WV6Q00PBNXZ6H
155,01F3HYQ1KCGF7E6DEEWHH0ECV6
156,01F3HZHMTP4YNEQ9KW1HK3F4DQ
157,01F3HZQ85NVEMFZCYM9S8P5QKZ
158,01F3HZ4MGB1YJRVPGGD6CXXBT5
159,01F3J086K4GA5Q786VDV52DB25
160,01F3J09VFGADEQQAV7HZG40V29
161,01F3DNH6P21QW7GQ4XBTQD0MT3
162,01F3CWZ0HM7EDWGBSRV70NWT7Q
163,01F3GKWC7HTV7P9F4EFXRREB32
164,01F30QT3C6MN5H3P3795F7NZRJ
165,01F3J10VFDDDN3FFV7DXZ45VZH
166,01F3J0DDM6X27SPMGCCA90NER6
167,01F3HWMN81HEC6NX7T2BATH6RQ
168,01F3J1PXF4XC5N3E2B3MY7ETCW
169,01F441NA4V91AXCZZCQ15P6WSC
170,01F440HEE2RCDMCPXPKCH0Q00R
171,01F3J1BQ83B2GA9ZZADEZPSYVY
172,01F3J28YVE684H4ZY5S2DHYMQQ
173,01F3J2KA58S6HYKVVWY2DDCB2S
174,01F3HYCCR9GFHD729NR53QMF46
175,01F3HDDEDFG4748XAZD84XKDVC
176,01F3G6SCS1C2D5KA907QP61XN6
177,01F3J2YWB3TARYZ6W29TPPA6DB
178,01F3J3JRQQZBSR2P7ZQ5QPJNR1
179,01F3J355X22XKKRGPZKYQEYJ59
180,01F3J02TNV130AN86H0D05AFGH
181,01F3HBGNP809DBDDCVX0T0KQBA
182,01F3J47M921333S01X8NY6VPVJ
183,01F3J444798PAPJFBKDB1G82FP
184,01F3J4NPM0K62FN6SRE097KFWP
185,01F3GCP7QJ5YXHSE2XVJBERW9J
186,01F43TW86NH8183KC8WKZ8SPFP
187,01F3J4W2Y5GWP60E8NE0KJ6JNF
188,01F3J2EP92VQZ8VZM44EPVBZXB
189,01F3J60XETNFVWV9RJEPM0B4ME
190,01F441T6Q3NKBG8F0JFHNZ80QP
191,01F3FHDJDD9ZJ6D2TZBBS6Q003
192,01F3D3AE5S3YN6ZPA2TC936EZM
193,01F3J688BKG9AY6PQX1TNTMR4M
194,01F3J4DZSF7CB63SR465MBRM95
195,01F3J5WXY5GMK7A71HTHN9X2PR
196,01F3J72SJWB502S2V7Y5G5N3QM
197,01F3DKKHM1R3D5ZSP6GK03ZE50
198,01F3HEQ6BPM4SN5C0M1PJVPKNX
199,01F3J8619HSC9TNF04KRTKED9C
200,01F3J85QA9HF9S3M17P6V35A44
201,01F3J8CNNQ253S99YDD03QRHYH
202,01F3FNGKPTK657XKD5BR5MPK4R
203,01F3FA5NYZ5F1603CPB5PT50WX
204,01F3J786RKSSWP4F2CG16FM1TJ
205,01F3J8RZMD3QDBQFVV6MVABD6K
206,01F2ZMF6MYC4NTQA7N7NXPD960
207,01F3JA06BYYVZJJM0QD5R6G1W1
208,01F3JA98K309J7Z3YZHN6WH8M6
209,01F3HKRFYDRVFYQB8QHRHPV9M1
210,01F3JB6PB2B17FFT4VT3J86MBE
211,01F33ADA56E7K658P0BKN7DG74
212,01F3J4WAEHMY5RWS176GNJ1HKM
213,01F3J27J032KJGW0YBQ0B9HE8X
214,01F3JC5168F9H1C47KE9GYKY5R
215,01F3JAVD415N8XJNKAKNX67FD5
216,01F3JATSVGYY68XNMTYHA94RHR
217,01F3JCGDER60VS29F18HPR37SD
218,01F3JD0P5ZHZF352V7DJ0CFDWX
219,01F084ME00P64VPKDW2BPGXP2R
220,01F3HTPDAY1N50TMVTEV2TB9YE
221,01F3GPVFMZXFY5ZPM1JT6454YG
222,01F3JDREM9YQ56Z5TYN3T7BZ5B
223,01F3JFB2155K23NPX45G2Z2K5K
224,01F3JFQCFAKXMMJXH6DTW1HSF6
225,01F3HXJBY914F42Z0EZGKA1519
226,01F3JFX5C3VFQ29KT50SN6M4N2
227,01F3JGP64CVAD6MVAWXC2RZEN1
228,01F3JGRM0KAMJBKNP8JKQHFB8B
229,01F3JGMYST7SXZS10CE5SVCKF6
230,01F3J6ZKMQ35Z8QB1F31MAQTVB
231,01F3FZ39GN5BA8YWR4JPX6PC72
232,01F443NX90YQEY54TDC64EF5PV
233,01F443QDSW5T1WVD898BV2N6FQ
234,01ERKK19SRH01RBRDRT5W6N617
235,01F445FVYWJ1C7VTQ443VWNWC8
236,01F4461HDZKZ5BX4SQTJRC2FVZ
237,01F446NGYPZRHC34SAYY6JT67D
238,01F44428WJ9PY2GP01R8KY2N8R
239,01F4474N0A9ZM3V10XD55MRF9B
240,01F445Y5G8JCDAKGF0MF0EWP1Q
241,01F4485AVH7MB8R4BTP5TR9QSF
242,01F446S0QY79R3JZ4Q5J814EJT
243,01F448XWBR8D2JZ76BR4MFJV0H
244,01F4469ZTCK3BVNQYT01B9RM83
245,01F449VMXCFVC0A79GE21JS40B
246,01F449F0PT9F1SRQY3N9SQ5XM6
247,01F44B2KYTXF4AC8NDD8ABKDDG
248,01F44CBH8ZHH3T8EYCMH269DNY
249,01F44BPTHASHTG1F11N9DZFVNW
250,01F44BDBE9HW605PDVD0XVFHRP
251,01F44ER1604ZYBNBGMNZZ97A9D
252,01F44FDT6BBV0YKCWSWC59BE51
253,01F3TGKJP94RX0RNJ1VS0SDC11
254,01F44ECR6SW68QNJCK21ETNA5Q
255,01F3JHTJNSV53BT6KT4X1NRQ9K
256,01F35Q3XQM2ZK4P2Q32K8AGM6Y
257,01F23JJQPE40W7CCQV9Z1R439Q
258,01F3JJS7XW2PTZKZTPM5CSWXJ2
259,01F442VGQFXAAP2SXTFYYZMJ0V
260,01F3JK7SXV76Z7ABD9MJS78W1F
261,01F3JK3EM6KA4MDJSE7NBD0VJ4
262,01F3JKQAPJ2VRZSPSKQ5S5FWRK
263,01F3G4KP67EVQ570351KFJXM3Z
264,01F3JKVE9QHV1EJJVJ2F749JW1
265,01F3JM1Y7BCXRREYCEBEM2YZ3M
266,01F3JN1XGF32WYZ9BDJMV524CR
267,01F3JPC8MA9KHXNMGECTY9JD53
268,01EVJP7E3KNECMBX8EVR5H7YEM
269,01F44MDJNJ5V6BYNF6YYERN0C3
270,01F44M6239B0PK9Q7GT5MNGJA0
271,01F44N6T0KSCG6AC3ZNXB6WBS6
272,01F44KZA4MAZATQKNWDWJMPBGM
273,01F44MYC39NDN4RHQKAB24DP1J
274,01F44N72BQVZ5V1G251AZYHW89
275,01F3YWZSDHZCWZGH841C8EF28T
276,01F44QRW1SHDKRVFNXPCGQC558
277,01F3DJSZ5K168K0QVVXKQF4E33
278,01F44SSXNF66HF6J5WZN6PG6KE
279,01F3CFNFT3C56TJYT4T677T2PH
280,01F44TC0RWPY3W36DXGAFBG8C2
281,01F44V9QA8N068WXMW7DTVSGGH
282,01F44TVXRY1KJZ868ZP3HXXEQD
283,01F44XGQMA0ZPJJ50R28GEJAXN
284,01F44YJ9XG2BWHP2P76VT56AXM
285,01F4524TRCQDAVDC5BW43CV4S1
286,01F39CHWSGGPNE75Q8TNMXBTRG
287,01F44FTAXE20V87EWSK9ST9VV3
288,01F45KGFR936HBTY0TRWDMPG94
289,01F45WMY72BZ2FP92QEA34JMRN
290,01F45X8SMQGNYF363T90RJC6ER
291,01F45YCG26TJW1W0WQHSFA90R3
292,01F461C7VRNF2MDE075X27JGMR
293,01F461D79NDZPJXDY0TTF3PC4C
294,01F461R614PA9T2187N8YRYY8B
295,01F462AZWW9CYWK29NDJ62KE9S
296,01F41JK2M9HH9YA603AS8YRY74
297,01F4629C1HNXJ6ADRNGA06Y6E3
298,01F462YXH5XG2JT9KC48BG9Z2S
299,01F463GRR03QRYNKSBHBPK5NDH
300,01F460Y4YHF3NNEHX751FQ7FYH
301,01F40VREAJG82VK13TFTKKH650
302,01F464CX651DWPWJ1ZXTTM30BX
303,01F46065FXNRXP4RT4T5SYBJ3T
304,01F3JS7BPX6KA94FY2K0YMNBBX
305,01F3JVV0APJ7HTM60CGY3E5M00
306,01F3JWP02RYAQSV24N2NZA643G
307,01F4650SHYHQKF1A3XHE30MJMN
308,01F43SW00NJ321GCBF5JKC8M7G
309,01F3SDH5354PBCCFGKESAQ4CCT
310,01F468J82XK7VEFSP8575K07HT
311,01F3TVBVXBE1AGKXRNF94FCX6J
312,01F466XAH7EBXG18ASEV6S7VQZ
313,01F469GAX1MAV0M7P834JGZNSX
314,01F39PQK870FXEWMRF5HSNZ6P7
315,01F46AA1JQYFENQP40TP9WQ0A7
316,01F46AMEZB50PKWSNSXYNATX51
317,01F462ZP5BX5J28D4SB6TBW253
318,01F34F5SNBKWA1HD0A6RXTWV7A
319,01F46G51E0QER2YY9KX385BN2A
320,01F46H2DMD39QCDX4HGJYQES64
321,01F46H0JN1NFM1NRKK3N6ZRJ1C
322,01F2WF63W7CTQPFCMTRCVBCC3H
323,01F0SR59DNKE2Q9B8QZDBF94PZ
324,01F46H49C9QAX7FABW8QRD25XG
325,01F3Z02BZMDXSMPR91AJQ7XCWB
326,01F46J45WAHXX9SRTJDKTM2FAM
327,01F46JKH59CR56RA3WN1WQ9FTH
328,01F3MD2TSYQCEKDM52N7Z694Y1
329,01F46K9DV4B0VDYDAEM3D6YWQ8
330,01F46ASB8K0Q59ETTEPQB8SGZX
331,01F46KB99DXYACJ26DJQV0PZ4M
332,01F46NBH18DK9TJ0HVCC2FQ0YF
333,01F3K0BMGSHT1BFP5RGVV32BYM
334,01F3K0916H2AHGWS7RKKSJ2SHM
335,01F3K0YFD5VGCAZSBM4664PD53
336,01F3K472P458GNHEECVM268174
337,01F3K46DN8R29REYBMYRXEXAKX
338,01F3K580YZFEF9WF8VTKYY11NH
339,01F3K41T3JBG485EPS4NXDHXTB
340,01F46J0NRSH8QMQB7133E6NK7J
341,01F3KJ8PC9Z7KAPGY935XBBDBW
342,01F46QE95CE8RHFNB7AFWZ1AHA
343,01F3KPHF67S5XZY11DZVTK2XK6
344,01F3KQSW8Z0VBBVH3GGAJJGTCR
345,01F3KNQ6MVPCDDA5VTH0H8PHQE
346,01F46GPZZDH5WSBB9QT4G3CFPW
347,01F3JNXV6GSYYSBB1DHTK4QZV6
348,01F3KVMSM7GETWXT7M8S7NB7D7
349,01F3J3Y4VDBCM83GMPMQPH7GB1
350,01F37HH8280D38MSGN7TS5JNX8
351,01F3X7CDBDJR01V98Q5AR16J8X
352,01F3WR9FSK8BARACPSEVB8QM9Z
353,01F4XWKG1VE6GKQT2FNM1GBAWV
354,01F5QG5JM16Y62G9VA95YAM2BS
355,01F4XP3ZSRX1KEQRQ007M45PSB
356,01F5ARKNF3P8ZC5N25H8GCDJ7J
357,01F3HD3GEXGK2FSSEY8772EFXW
358,01F3QV6YXN19EEHSHRY7J623TF
359,01F3QVS92N95ZQEBZ07F73PCWF
360,01F3QVPYD0SM14V6DW76PERC95
361,01EWG40C2SNDM3MJBAR671VT3X
362,01EWG40C2SNDM3MJBAR671VT3X
363,01F3Q4JWYAP5DG2W37P8W593PR
364,01F3QW6FR0BJPNJG3XK9YB2JE7
365,01F3QW96MZ2GDPSC2P3TR2QCK1
366,01F5SDNVZXXVNN9DFWE4QYG65X
367,01F3Q95MB18SERXB9WAYCJCTVE
368,01F3NBSFBD3QT10WXV0KYGCSB4
369,01F3QX2ZZJD113HTPSXGKZS1NB
370,01F30J78PS91XT0896J6ZR0YTJ
371,01F3QYB43R36S0JHWDS4EMF4MS
372,01F3QY9AAMZ3716XYMTC28DEN2
373,01F3QXQPY95V9QYAZVC1TZTQ2X
374,01F5SESJY7P9RW274931Z6ZG13
375,01F5SF3N1H4TGFPVW7H59JAZM4
376,01F3QZDHWFPGTMGA7734XYSKP8
377,01F5R04J32T4PWVT7RT5JM0QFY
378,01F5SFK637KNGZ9J752DXN37TM
379,01F5SFP5314WK9SZ93397YVC47
380,01F5SEN2QVEX59JTPZM8GEV7FP
381,01EXEFF814C24PPWKW4DV2RPBD
382,01F3D812K92BQ1KDW88JW3SQR8
383,01F5T1HC4DJ3G8P2FGPC7BFZ33
384,01F5SFTHQAFJXGA6V0N1H3EV5V
385,01F5SH1NVBMJBV055Y35XVE405
386,01F5CX2ZE4B0Z2WRRY3YTS32TB
387,01F5SHMV16GJGD993ASZ951BXV
388,01F387M0B9GMT2HWSKST7BBKS7
389,01F4VDWTNBG6T4BN3DAB01KNZN
390,01F5REGP0503NB9AJKV1XS5K39
391,01F5QCQ0MBVZQWNE7H7RYGEAQZ
392,01F5SKHQ9DDXP37T86CXDM5XR8
393,01F5SMC2P1CCC3XRXEFSCYJYZT
394,01F5Q0J7T7SZ31NTV2QV9FHXEJ
395,01F5JZV45YYYQV0H7WFV29H53E
396,01F3EMEK7E07JRSZDQA62Q2J6C
397,01F5JV1YTSD6T2XK92RKFDX5XD
398,01F5SN2ER4J2GK9C0DVYQ0CJY3
399,01F5PYZ825PP9J0CHK19AHD3PA
400,01F5SNMRACQ8SF2H782P9AZA5W
401,01F1WNG2WGN112XBP4MNP1H9SC
402,01F5QY5J287QYK5XAH17TN7FPR
403,01F5SQ400SWC5ND81PZDGD338H
404,01F5SP4Y8GJFV8T1RDHHW3SCJW
405,01F5SQ4PGTH4VTVSAWH73YY76Q
406,01F5T1PJXM74J4P744S6R27JFV
407,01F5SR6PM8FSP371EY2AEPNRA5
408,01F093M92MG6CDQ7ERCBJG2WCC
409,01F5SH7CZY55Q6K42ZW9864PZW
410,01F177DJR91BBMDTJ0N8NNDY3S
411,01F5SR4GYSATK8JM4C00Y65Y7Q
412,01F3CS2MQBEA1Z2Y2BQHKHFE2P
413,01F5BD17G3AJFB3056TJFJ43E7
414,01EZBTYM517VKVZFH5Q56B7QQN
415,01F5STWPCWS28GF21PVJQBP5AQ
416,01F5SW79BR3TJ823N7P54XAGN1
417,01F3QXT07DG2DKR22QJ5HXTK7E
418,01F5RN10KVK9T1Q7RB591J37EY
419,01F3R51J1ZTTTW0D37SX52MHVR
420,01F5M8D3N6ETREP1PXKRZJBGKH
421,01F3PVH2NQ34BEK87G78FFRF8H
422,01F5SWR0AZMKV1FH10562YS7Z1
423,01F5SX815RWSF508KP4Y81Z1WK
424,01F5SWYXT22D0KJHMFM8210TGX
425,01F3R6DSRN7B97YGCW3BNPFVJ3
426,01F3R3JJ0TX5J9F4ZHRHBY3T1T
427,01F5SX9XS1VDN6W91X17NATAHJ
428,01F3R5S7F76FXNR411H6DWQX30
429,01EDRSHXP6G6CDMRJDJTS576ZH
430,01F59S1Z9T2ZX4YH77M7ZAGV4S
431,01F5SXT4BH7RVVTHD8HEYKVEE6
432,01F3S6G6Y7RX4KWH1XWA0GM8GX
433,01F3RG97PAATM5YAR0WDN88JM6
434,01F38415YB6M4A1CC3DPF7290S
435,01F3RNQZ11DJDJ5D2GZQWCRT3Y
436,01F4MBRRAJ464NF5FWRWM5TVYX
437,01F5SYGZXBBH9K8G60B2X12DYB
438,01F3MVN07KGDVDVYEH2NGY0Q3H
439,01F3RTB78A297FJJB49WCPQ5S9
440,01F3FEDV6734ZVXBER4JE2QHNR
441,01F3RW16E02EWN7RNENB832Q3N
442,01F3RXM9B24ET8QY4WDPHAQXPZ
443,01F28S6GDRGWRY0C5C643HSMZJ
444,01F3R04Y7CTPA79C8NTX3S2YBE
445,01F4895DAD9HSA6GQSS954Y77D
446,01F3R04SAFZQA01ABGJ39M6G71
447,01F5T024GDWP7P3DRQEQ3RQZAX
448,01F5SZV491W5RRVBPAZQZ5QV2Q
449,01F3PTDDJD0XNENKKT8B5NRHAT
450,01F3RHQCWP4QF2V4XVX28PP5X3
451,01F3S70V0ZPWCEG886Y63FT4SJ
452,01F3S0KRJHJ14EE6EXMHA9X7YG
453,01F3CTK30K57BX05R7J7XDS64F
454,01F02JK3CF5NMB6HKDW6QZMG20
455,01F3S35WFNQKY9NFFT2Y9G37YW
456,01F3Q14F3B1HX3D69B4CNBGN9J
457,01F3S8250Z4YTDQXGB42JNZE6T
458,01F3MFPE2GR756E17PKC6CH2DF
459,01F3V5YKSAWBY3S9BNQV60Q0KG
460,01F5T2RJDW39018N92JPFFB5AH
461,01F3V7T4RJ7MK9S0XK91SH0SMJ
462,01F3RBDJ08STVZ5J15ZTT1RHFE
463,01F1CGR8XD4ZD3R0AVEHNESD1N
464,01F1CGR8XD4ZD3R0AVEHNESD1N
465,01F1CFMNREARVPNQCJXTSKK1ES
466,01F3SCRAH2C9HZA8FPGF6STFT7
467,01F3V6J1P1M5ABKHH3VX2S56WH
468,01F5T24419FKEN0D2FFF0SM35M
469,01F5AW4EN02MQYGJCZZGXQM6WR
470,01F3SE44CTT1TQ3AT05ASJN76Z
471,01F3SEHZJVS0H6Y2YFJCZF8WMM
472,01F3SA175Y4C6C6F81B2QTC6FB
473,01F3SFHPKXC81145F9YC8KNVWS
474,01F0YYD9PNNEZ1G8S6VZJEVPVY
475,01F3SFYWVR9MB4WTHG7FGV4K7Q
476,01F3SG451W3XWXZ00TKT6VCBE0
477,01F3SFJH1RHNG3DD06Y54F62MK
478,01F0MK98DH5D73K7XAB7GNETAD
479,01F3VB5RH7PYDEFWM0CQZBDPRG
480,01F3SHRDCSG5F5T4PC36JHZSFM
481,01F3C8G8G1W1R986591K3NV4S1
482,01F3SJM498MCP97E2A8VMFHJ5W
483,01F3SJBD8ZEDAJ7SW5K8M24R33
484,01F3SKFA47A85CK0V8PZ1WBJXD
485,01F3SKQVQ4N486RK9V1K6D2WFE
486,01F1CXYM4KXHREDYH7D8D93K7Q
487,01F3DFMEV4RN4EB2NG5VDXJBVA
488,01F3SN32CT4W9T5ADF56QNR359
489,01F3SM89F0YH5PHJQQB7E9FY48
490,01F3SN4N9Q01BBBFD7D1JW3J35
491,01F3Q1BF23HMHCD5XBVNADC472
492,01F3RZHECF4A74FJ1DCBT8ZKY0
493,01F3EP5RM31PCKV3P3X7TNJ28V
494,01F384NNJ5JX3YJWS3AQG9ENS0
495,01F3SQPRW3YGZAMEBA3VJ5BCBR
496,01F3SQYF1NH441P74265FQMQ0X
497,01F5R313Z715604HXYWM8ENANX
498,01F3SRDA4M90PNHASQ8HPX21DD
499,01F3SRD36CB3KF98W7EKQJ0NAH
500,01F3SRVMPSGSG2EEE4KGXFW3A0
501,01F3SRF82DQG94FYPJ573BNVB4
502,01F3QZSGNZKS7BR1YXDVT0KE8B
503,01F3SS67JKVHAA7FGMYHZDETGV
504,01F3SS5WSKQ99N6RDJ19Q6S50V
505,01F3CJCR3V3HNCN7N1TTW7KWK1
506,01F3GYJSZ2BS28A5PDYTH1W724
507,01F3SSGWEPEP5BNR0R30KS162S
508,01F3ST5VHJ1KWYZE6SEMZV1RT5
509,01F3VCQ6YGGKQEZJBRY0NM2WNB
510,01F3SSA7NVKYRDPVN7KS7BTT76
511,01F3STDSJRCZ5RFN92ECCE82CN
512,01F5D5VHACQJYWQDHD5H1M178R
513,01F3SV10JSGRWD9KE29M4E75XM
514,01F3SW8FSN8N1ZKE6A243PD842
515,01F3SWSRAWM6N6MK0NY474Q9VS
516,01F3SXT3FSBMDYB1SBBVMW7WFA
517,01F3S90G096TQXQYX6662GZWPN
518,01F3EQNNDE82YYYMJQDFSEMDC2
519,01F3SYCQRRE3E011FTJVH582NN
520,01F3SZ4BC29207TTR1R36XTZR3
521,01F3R27MBHEY4ZVGK6XRGN0QTG
522,01F5T6SKVARFY95GN7VH58HH4N
523,01F4467VM6GZH1KSAC5S79XA5Z
524,01F3G8GWV07PVX3A15RS5CK2PD
525,01F3T03KSEG8881QT488FJX99Y
526,01EEQ403HDW6BTSBWCFKNN5AV8
527,01F3SC4E24DYCVCE25YF19GTHP
528,01EYXJWFJ89ZG275HVMBX9JN95
529,01F3T0RYK44FPK0FVA9PENDP0N
530,01F3SZGY27CWW1Q1NYYKFEPKQZ
531,01F3SP2J2SDCPVH0SYY460SBGT
532,01F5T76ZZZGXEZJDSSV8JK2F7M
533,01F5KJSDBF0NCNKHGHEDBDNJYH
534,01F3T1A7CPBPR225SWTQDMM64Q
535,01F3VC4MP3JK5FBANATBCEVGCQ
536,01F5T7X3HS5VV057AQ293S0RAH
537,01F3S8B9QHKC47GXRGJ7FVTZM2
538,01F3G88RBM3D1ZT55F1N5N1V5T
539,01F3T0PWWG4TE9AM63F5RK21SS
540,01F3T2W0NB58WGXSPZRS9ZCT6M
541,01EYPYM19X8GY75WM6DA4KMS13
542,01F3T23RATJZJQSB2J79B1VYXR
543,01F387R7KDQN52K6VW4040H0R9
544,01F3T1XKZZ8JSG8A8JVF9A1R1K
545,01F5T88SZ3TQ4QAKXTD4MVSX0W
546,01F3QYG6497VDEPSP07VBMSDKB
547,01F5T8CS0WF81ER48VNE6XZBH7
548,01F3T5ZTR0T588NRXPM6RSFPF3
549,01F3T6P2JHEBHECJ6BTB9ECKJZ
550,01F3VHGG7ZF84BWZ5XYXXW53DY
551,01F5TZKA8PS1DZDQFJP4SWBSBC
552,01F3T7EYFB8DSB4SX3WFJ68GEJ
553,01F3QKDQ4RC59JYCX75E4G2KB4
554,01F3T7JP5856MC5412HGMW244Y
555,01F3T79CDXAF2S4A3GPXPH4GD2
556,01F3T80PPBNXWR17PMNAV0RRVF
557,01F3T7BM13CKX3RKDS0H26X7B5
558,01F3T3RAT222HR3X6DSNAMJMCV
559,01F3T76CFSWPV0RD7GFCVKW94D
560,01F3SJ0V8DGPY4RH2TZVM4ETQM
561,01F5T9PWDMRVMZM9Z788GM1DTT
562,01F3T6SXBDM9E1EF4K1N6HB1DB
563,01F3T8VYQCBS2HEP1F1MH3H9DK
564,01F3T8QFXC921HYC6W24MH58PW
565,01F3T9HTQT3MSNE64JV6JS6QK8
566,01F3PXRK9TC06M08YDK2RYHYDN
567,01F3T818Y1QC7E2JT5R6P2KQNC
568,01F3TA03TQ58JN85KPNAP0TBB8
569,01F3TAGB58SBZ8VEWCYRW3NB05
570,01F3TAEBYGT1XJVEBHXXTMEKM9
571,01F5T9ZQH0T0STAH6VYY3K6GF4
572,01F5T97STV4XJYVH5TQSD8M813
573,01F5T9ZW6WPM9QC0MPYS0RG818
574,01F48RZV8VSAY6QDPWVJHP1X7H
575,01F5T5NV3XSGD2N3SAP1YKDZ2Y
576,01F3TAS6NWPHEZEM3M82M1268K
577,01F3TA21YYWE4F917M6ZSF1368
578,01F5JWQJ184988648EQS0SJETB
579,01F5TAS45PAR9T424J9544FEGN
580,01F3VJT45S3SVRRKP2Q4RNA79B
581,01F3CKZ1R88MNTB02SE0ED16E8
582,01F3VHSDV67011T1255B4N2YT8
583,01F5TB5JFFE5G1ZAV17SBMJ0V4
584,01F5SX541Q22QFSEVZZ338VQMR
585,01F3TBYKFHKCVJ9RWHCHZ1S5PD
586,01F5TC60SNJ26XC7NF82H23AD6
587,01F5T3QJ26KM3NA12K0NV1A2RC
588,01F3TCEBXFB2MZFS48AG0PMVRX
589,01F3TC6ZYAPFD07FM3B1KB9VNP
590,01F3GG005MA9B5EKV2KT65HNSQ
591,01F3T5XZ5GXXMVHR74MMMHV650
592,01F5TC35TC8BRDAJQTKH1Y8441
593,01F3TD3HPTA0361KY36VHZXH1H
594,01F1HRTNZQ73DRZMQYYA83GRTV
595,01F1HRTNZQ73DRZMQYYA83GRTV
596,01F3TDB63QXJ0DGD3GH25C26DT
597,01F3TD9PC0GWZ1W8Y2SDT800C3
598,01F3TE5TPQGGPMJPBEC1KPS6A6
599,01F3D5P2W75YY2VHTM80CYXMGG
600,01F3TED761PJF2CT7WYYQY1T1A
601,01F1J9DKHD5FWHJPTK7SP3YQ47
602,01F3TFA10DJHSBVXRR3Z452Z3F
603,01F3TFT0KJYQBGHTPCVXN35731
604,01F3TFZ6RPSYBQNNRZ8YMG8P76
605,01F3TFRSR5NQM40Q3EKRW964G3
606,01F3TFRSR5NQM40Q3EKRW964G3
607,01F3PQK440NG1BY16EBSZF2M13
608,01F3TG7N0TZTQRPPAQC7768BT2
609,01F5TF7CVRAK2J3NPSRB8AQ0Q5
610,01F355PBYVRNT95M7ZM4FVKBED
611,01F5TFGPWKZVKBPEPWJP0QQR1H
612,01F5TF867SZR99P9RK5Z7VD37B
613,01F3D94ZN5JNBNBHSK4RVCZCHP
614,01F5TGBXWQJG804JN2PMM7C3DJ
615,01F5TGQHKK5E8N62RMF4A8VC90
616,01F3VMENF9EX1XXE68RA0KK3EK
617,01F5THC2169JYY15H68A002HNM
618,01F3VMG5GSNTBFBPJXT5D60GS4
619,01F5THB8NTBN4GZJGBM625SRYB
620,01F5V0ED4R8KSM70FTJ09Y01Y9
621,01F5TH7B7AJ1C0H0S1QJ04R8B5
622,01F38HSXJ9WMQFRYPBM052PYWQ
623,01F5TH6Y88SZ5K9NQMH7YY4VHN
624,01F1N8Y7BQRK5DB94QTBSS4Y83
625,01F4TFKXMWR3A2DH1TH3J9K3DC
626,01F5TKH1VKE48HNV7FH3AAPACM
627,01F3R36RNSP4NY96R30Q1TN35E
628,01F3TGSZXE7PV2NV56NESZ5DXD
629,01F3TH6SDZC12K8TZ6DAYPKKHY
630,01F3THSRYXYPRKZN8P8HS7XT6V
631,01F3THQZ3WPXS3PMSFG2MPKDV5
632,01F3TJ8NSBX6TTEZCCVM9HSS4Z
633,01F3TJT03N3P3C0C49DC5X0822
634,01F3TD6D79HZN6S2SGJTX63W7F
635,01EMV9DERS7XCKGX4EDFXKD0SV
636,01F5FQQ6DBTC3DYWDY8W1RRW5Z
637,01F5TASRNF8824XZ3R00JJ0YZN
638,01F3EPG1J4NY5DX5HN3ZVVBMFV
639,01F1PQ8J0B7Y9TXSS3BK993D74
640,01F1PQ8J0B7Y9TXSS3BK993D74
641,01F1PQ8J0B7Y9TXSS3BK993D74
642,01F1PPQZCGZDERE1Y6TQESFPGM
643,01F1PPQZCGZDERE1Y6TQESFPGM
644,01F3TM0BXH841GFHFX5XSB39FR
645,01F3TMHGS6Y08GVZ4KYG6BD48B
646,01F3TMG4K8TYT66KBD3CM0Q2CH
647,01F3TMNVQX7MTJ16JGWCYSVH7E
648,01F3TMYWYQ4GM6DJ5EB8HEHKJ7
649,01F5V6A9NCQJH1R7W1B9JF60VK
650,01F3JX1F6J7RA3B5C1WAEA7CNW
651,01F3TQJPS0GGT0E47BVWJ4H5QM
652,01F5TMG5HX3HMVJK0PDEF4XB7X
653,01F3TR3CMW4AW55YB14V6D4JJD
654,01F3TR6C38Q3MC5YVTTZW153Y0
655,01F5V10KH421J45JTGCFA55E3J
656,01F11M4XM9V0XYZ2CKSDFJNSQQ
657,01F5TP7Y73AG3MHJ5Q37CF4911
658,01F37JEYSTKGDYZ22P0C5HQ2TN
659,01F5TPB3586NHGCF3EJ9TVKD4Q
660,01F3FG9YPP0YX319TE87472PYZ
661,01F34KB8KCBQAH17V09032SED8
662,01F3FRRM2AH09T6Z0VKR63J3XZ
663,01F5T2T37W5AYGBHRFY962MBYX
664,01F3FS2AMVWNXFV8EF9VPQJF47
665,01F3FRSTZFBNN0VSKJPTMS619K
666,01F3FSGPYRVTX6VEKA6T6DDVK4
667,01F3F4G4AES28M6WXX9DZYDG2G
668,01F3FPAM04T6GBVN6BM4FXY0EH
669,01F3FSDSKST9FE7237FMHZG99Z
670,01F5TQFW8WYSX7AG868S5TXZ88
671,01F30VWK47REA7CNVNCR7BSTWS
672,01F3FSR2EBVKSDM62PC0JJVTJX
673,01F371XSHWRHCVR29YGAFAGRJM
674,01F3FT7M7476XDHSSZKC5HK2YG
675,01F3FTNX4CRF2MC74NZ756FTB6
676,01F3FTGD44EJC6B0RXKR8B0EEJ
677,01F3FTJTD3A1804583F4JAQ213
678,01F1VC2B5AQACQPW5BA4EY5NB0
679,01F3FTGQP2CG97N60AG9DS54ZZ
680,01F3FT8BXTQB650C1GJEPNZ85E
681,01F3FP2N7F89HPPACK2Z37AK4J
682,01F5TQNMCTV3K1TG6WTVPKK45D
683,01F3FVPDJ90XX6NSR9036VQ9WK
684,01F1VQ20KPF9ZCVQMR9FYH25CK
685,01F3FVWZC4GHM0Z4NZ8XWKRNYJ
686,01F3FV0P6XP17TTPP77F0MFGWF
687,01F5TQZR3PVQN2531VFXAYR6VM
688,01F3VMJKDSCG4PB8TC9M6CTR5D
689,01F3860GJ21ENYN6YGPQJ2GD2F
690,01F3FWM13YJB7CFFFTR5YVFSFB
691,01F5TRC6B67DYY6Q4YM9NZDJ98
692,01F3FX0N1QD7FMFYRC96BEC27X
693,01F1W5EHV4G49PWDSHZERG1DPK
694,01F5TRZJD2BQ4DV18Q6HAANVM3
695,01F3FXCFV66XKVYTSNZM2F1JXD
696,01F3CV0N132CRFGND7BA5P73QS
697,01F3FXEJVHDC78QVDXDHRXH94E
698,01F1WRAAKHJN3ZKE43F5XCKF60
699,01F3FY4GXNYBQNJ4GQKMVQX97G
700,01F3FYP90V7PZKAKVNWA19GR35
701,01F3FYCPBPDTHC5B7DD3E2NRJR
702,01F3A5931ZPGFCKEDSKAQGVKMY
703,01F38J36VN7P4Q4E28YFEBKHN5
704,01F3FYVPHZ5EBMVY0PMD2R5RQ4
705,01F4C0AD4PTJ01YRDPVYYDS004
706,01F3FZHT16JJYSFYNR25YTCH9B
707,01F1Y2VPVNKHFFBZ5K0PQ4XTNA
708,01F3FZAE6F4MDRQC53RGBZNW29
709,01F3VKC0TW0MHHQDWGQH0GVGB8
710,01F3888VXZ30VYFC120PAG17QP
711,01F3V03ZGCW25X7QMJYBQ4VDDQ
712,01F3FY32GWRJPCGCZZ4GZZD7DY
713,01F3DMW8H0NZTZ6W51AFEM090A
714,01F3G08NFRCPTNZJPDR66PF38N
715,01F3G1EACDCB4TK2B177F5JCNX
716,01F1W9ABES5NAEJADJSHX1TKB6
717,01F3G1CHAJ7DNJ45NV34RTG6RB
718,01F3G0QTNY2BEW0Q9A1C3453CR
719,01F3G0W94DR7NSQ2FACR1E7XE8
720,01F3G22ZRX98MA7W1B0V8DMZTX
721,01F3G2N5YKEDYTESXW5X5JKQRF
722,01F3G2R7K3JT3H9EFZ4H2YMQHK
723,01F5TVXSSJ25AQ2EF3Q0S1DAZS
724,01F5TWMGA9CDK7AY7EWQGQZ31E
725,01F5TSWHSKPKMMRQJWRXASGDZB
726,01F3G3837FZKFHA22VPEZA8WTZ
727,01F38E7HC4QXNBMGY7PCHSWXQB
728,01F3G3BXCWD3WDK2ND8FWJR5ST
729,01F5TWWZ4XN9BRRJJA5361GYHF
730,01F3VNF5BC6NZ88NHDQRGCBFR0
731,01F3G23CBBWE6XKR6TXB3Z7RKH
732,01F3G3RAJ8BM8CJHJGQEA7VRY4
733,01F3G4H7EQZY8FPBM7GJQG1QHJ
734,01F3G3MHR6MWPXPJKACYE76Z06
735,01F3G4256MFD1CNPMR3Q1WAWXT
736,01F3EMNJSA3T06NQCDKZTD5TS8
737,01F3G46W7WFJ7GT65N693409GK
738,01F5QFJD3DZ756YHVBJQ2DCNAV
739,01F3G34XBZEZ79PGE9X4E24T4N
740,01F5TYBDPKNHG9MWM03RC00YF9
741,01F3G52TDTR8AX2EV1JR2BW2ZR
742,01F3G48QH3NNBMV3MK436RKNED
743,01F3ES9V0XT43RN17H285TBHBZ
744,01F5V2N2KSSRJW01XNGY63CKPE
745,01F5TT912HCPWQDX0PXZ93BYRM
746,01F3DR6AM97NNQ1TKCAJXFD6J3
747,01F3G5PJGVF4JZ150C30GV5NPX
748,01F3A0BV6YZF5RWAS5TZEAYFX6
749,01F5TYXPGVY9PRYFCXYRJ6AA26
750,01F1MCRC60Y0FV7TSRAD03TMH7
751,01F3G4BVN9PJJC2P2Z12KGW6YV
752,01F5TZ7P10NM3P4SAS55PW4ZZF
753,01F3G69XT1ZHHP1HSEY3K4QNWW
754,01F3G638Q4DT9VSN6DM88T4025
755,01EZNP36AZE82SHKA4HKM7X9PY
756,01EZNP36AZE82SHKA4HKM7X9PY
757,01F5VS2B0CQB837DG9YPEQA6MJ
758,01F5VV880DWY46SXPYKHWPEGZK
759,01F3GA723WF0SQB53T8X6BQ0PC
760,01F5TFSWQ90JS45EEG6GCPY115
761,01F3GBECPSE5YS22KWBVWWDTWP
762,01F3GB3DTY4QR5NKKFPRPFKYMN
763,01F3FXXF3JP1PR5F9X9EE10FZ5
764,01F3FEJKNVBFHA36Z75Y5KA7DZ
765,01F2333FMBA50X021Y1AHM7G43
766,01F3GCDPM6HK795SDHSV632F7T
767,01F3GC0B814AKDHSG766FPV44E
768,01F4BSV8HRRVS4HZQSMTH26N7D
769,01F5VXAWQ2448K9E12CM8980SN
770,01F3GCFNHZJ3KAR7HNVSYA3ZVR
771,01F3GCR0WZ7QS9H0P8ZJQ5R2WY
772,01F3GB5V73VR2Z3RB580GKFJA6
773,01F3G76NY40SG6AJQV88XRSKNA
774,01F3GECFHQB4ZJFMZKZ5Y6JBCJ
775,01EV61FR5XW5JTD9W5NNQE5VG4
776,01EE0606ZS5QGWC2VGQ19H4TC9
777,01F3GES68Y6PD2H6VDZ22FS8A5
778,01F3GEWHRVVK2QBEVE629EW3AC
779,01F3GD2ZYA3GRG5C7KH4Q64TDD
780,01F3GG8C2RDNB773BXHZWWPYZ8
781,01F3GEK9M69VSKE7HQCX7VBSJE
782,01F3GGRVX4H87NSRDCKHNJ09DD
783,01F3GGPWDPAKGNZWM8130PBW7Y
784,01F5W0604DG8Z4VE6N7B8755ES
785,01F3GHRK0K07880E8TJWH5ZA7J
786,01F3VPXWYVG8ESQW9WZVB4916M
787,01F3W578T5F2YCJFT0RZPPAW8R
788,01F5V3GCCE1SFNQXK0EQJV1PZD
789,01F3E2GPRMP2EN2ET15C7CK6PN
790,01F3FVBK6B6QWWN0YDQHDJAZWQ
791,01F3VP4310SNTGCW5YM113SHH4
792,01F3GN9XZNPVFN9SPHZMQQQR87
793,01F3M5VDBKANZDKBJAJMN678KW
794,01F5VTGPSV5GFXJDYDT513D9DD
795,01EYYMT6BR7TWMWMQW203JWQTZ
796,01EYYMT6BR7TWMWMQW203JWQTZ
797,01F3GM1D1R8D0EKA2B7VVZ37P2
798,01F3GRNZZ8F4J3HPSDQS2X0WY0
799,01F3GYMRRNREFDJ2TPTRJMN2X1
800,01F3EVFKTHK1PP138KBSAWBMYW
801,01F3H5HZYP5SHRWXP6N5JHVR4G
802,01F3G6WCMC3Q9J9EDE222W44GX
803,01F3VR3RR00VAMSAN8ZNR2WDT1
804,01F3VR6JSFJS0RJQGBP2W6BZG9
805,01F3VRD6678X103RXQXZ8K15RJ
806,01F3S82QYWF3TZTN021PJPT9E0
807,01F5W2Z6SSQ7VTVG0JGVD9JESN
808,01F26FSHF7WAXGQ8Y756TREC0R
809,01F3VSGK7GNS2G7PACTSEKSFVY
810,01F37KMC5P4PKVWT0FSMHNGJ5X
811,01EYMGX0W81JD9N7CSSCX3F5K8
812,01F3VTPAC3Q8EJG910775P85VB
813,01F0E5Q600XXT02172DG1KS7T1
814,01F0E5Q600XXT02172DG1KS7T1
815,01F5FW3HD5E0B5EE9294Y63HGK
816,01EZYS2W7ABYH2G87SEM65V9CH
817,01F5V0J9QTFNXRZZ11WWZMQW79
818,01F5PWWDD8H8MTPA5PWEVV5FDY
819,01F5W20G1649R99YHE82840Z61
820,01F34DWG14FA55DK3RW5YXVYTX
821,01F5VMG94NG2H3PX336DA831NA
822,01F5SQYPQQKQXQS4HM58SJ5J5Z
823,01F26QAF4VPTJYNA72J5R1X9ST
824,01F26QAF4VPTJYNA72J5R1X9ST
825,01F3VWE4Y87RZPE3G4NNEVXJFE
826,01F32DNS26W23YN6DSPZ4ZS3SY
827,01F5W59D12EJPTM8HWTGJYNT4F
828,01F5R9QSMAY8JZTS652FMDR4X3
829,01F5W5K1KQ6WTBYNSTNTA8ZXAN
830,01F3QPA034YJKDWT44KCE4NTY1
831,01F5W3CK6ZTQYGBDZM0E6SPZHK
832,01F3VX7G89Q6XFXZXEXZBKKV50
833,01F3VXF4XYY0BBNPHXWWZVD6QG
834,01F4KZMR3AMEJ79Q6PBF1R976G
835,01F5CQG116BRKXXK4ER5C40G1S
836,01F3DT1HGTF2EFJGVX9NPNRMB4
837,01F5W6H4KQW8YKVFJ8TC2XW2HR
838,01F5W6HPB99TKZJZH5Q2GRKFJ9
839,01F3DVR9S67ZNPTJZJK9W2XD1K
840,01F5W71Z7YA5DM3N5XRF5MWYY1
841,01F3VX773DVMSBEJ45XBA697KZ
842,01F3VYQM96YYPF64PJRRJ41RQV
843,01F3W0QC75ZFQWN02B223DBTF0
844,01F3VZSBDD71XMCZARV8WWS61R
845,01F3W1CGFMV2MZK7EDKH1VSXH8
846,01F3W1F798XDYSFTC83Q0MAN68
847,01F30827DT4AX18GNMVJ4MB1M8
848,01F5W7VMWPP257WMC64MTGCQXG
849,01F5W844VKKYN02WGCM6038WAV
850,01F3THRBS8928YHFCGGHXF5158
851,01F3FM280ZKWY00E89FHR84QHK
852,01F50212JJRZ70CJYE37FVBTY1
853,01F5W8DEPX44Z9VVE9NR72Q97K
854,01F2DAZ4AFNA05QT72YKDCY9RP
855,01F2DAZ4AFNA05QT72YKDCY9RP
856,01F2DC9M0M1SR1K281Z1HJKK67
857,01F37G5T6WSPJD9J5GE2JNTD6X
858,01F3W31DD76MW7SANWX4H2X7F9
859,01F37G5T6WSPJD9J5GE2JNTD6X
860,01F2E7KECX4JEK2DWY7S4S8JD1
861,01F3MAE1WM23QTBJ1B4BRA16AE
862,01F3VXP05CEKVKK8XVEVRFW07C
863,01F3W49MFZ05NNZ7T8EGAY5S6G
864,01F3W44WXWA6WEB91JWWK4703S
865,01F3VYH2ABZY0KTPNXP6SDMYMH
866,01F5W9YA3S60T978CMXTWWTXGD
867,01F3W57ZYQ61PB3HY5EWQ5KS86
868,01F3W5J8GGGKN9S4RQA8023E7X
869,01F3W5DT16YD8N189XA97SRJGM
870,01F3T728RT13XXQETF5JXZRD3S
871,01F3W5NC2KEDE5DFZDQ9CBFJPV
872,01F2FVZX2QR9CA879C6MTPC1D5
873,01F5WASGS4KJYYC9JDZRGHHE85
874,01F5W82SCK6SDHD4G2YGJQKWK3
875,01F5TS19W08FZADDAE7650264C
876,01F5TS19W08FZADDAE7650264C
877,01F5WC8K8YZ5EW54VFNXW31PSQ
878,01F5WCG4P9JWPZ0BTFYE3H82RF
879,01F3FFD8V6C09Y376XQFCHKGWX
880,01F47SWZF87QWAW0YDK9TN89FT
881,01F3TQ3HWB04DYNVYMA9EAQVNY
882,01F5WCJMGRZ12RV0FZS9KVZJAB
883,01F3DENY9MYRDF0FBFJYJW759S
884,01F2GNJHYWZ4WWT357AM41X0CN
885,01ET55DE58MEE11J49WQWPVQSA
886,01F5WBH6RKS06FKY278PJ6WM1X
887,01ESD386AN051QXFCEQ4KKS7Y0
888,01F3Q5TXYEPCK04CQTFYH3FXY0
889,01F3DW9N5SYNJCN19DZZT7GHMS
890,01F3W64V8GCA28QD01VB8H4QS1
891,01F5WDNJ5GBW0HMWQGTZC2ZV21
892,01EWDA16F3EEHYXQ64M07VVJF8
893,01F5WD921Q8WCK6RWRFW4Q6FBR
894,01F3W8KKHJJEFBHCW1ET5XE61F
895,01F3DXDARMJFEGWM3WQKD7BNQA
896,01F3DXEWXK0B9JKAQWNWQEX6QY
897,01F3W8WN25YPR7VRR9GPW2TAYW
898,01F5VZ0EKK4807ZPDEVGWFDJG6
899,01F3QTJC885ANXQHFJ06FMFJ7V
900,01F3W9MDA5WAMMACN5DF5T2EJK
901,01F3W9TFYT5Y5BNJP6GCBFNF41
902,01F39Z8P5H8KK5839Q2FSXPXP2
903,01F3WA3XKMNHPYMW3PSM6BESFT
904,01F3WS2WDAZND1FRD9XQTNGVG7
905,01F3WAJVEV1QZ1NWWSY5AJ1NNP
906,01F5WV61FBXNX3KNGZ3P4Y568A
907,01F3WAQKTRBHR9ZXYA3E4EEH0Y
908,01F2JPPNXVEWYCH2D48JT28GYP
909,01EWHBY2M48CT6BKXJPF94894E
910,01F5WEBYBVW80FEKE0WK6AGDTV
911,01F3DTY6J5GN1ZF11AR1ZX7RN2
912,01F5WFFV6DJB1YG3XG53HFA83Z
913,01F5WGESKVEVSCXH3EKTMZBKMT
914,01F3W7GWBZCKPR6QX89PB7J13N
915,01F3WAFSCHVNH9DE262K5SSJQZ
916,01F3WC4XW26DXE2F97Y52VNHHA
917,01F5WHYV6HRAY87TS0GRXWPCMP
918,01F5WJ3RZ62GWZGBRKPMDYVEJX
919,01F5WJ0TM29CEJNBWXQX9TJB5N
920,01F3WCEGAFSQDH33N37QJV4X0Y
921,01F3WC3AEMSB3ZBYT7PX29FPRQ
922,01F5WJC914KTTH34CVV6B48XEG
923,01F3DH5G548Z7D1BM7SKEHY4PX
924,01F5N21YAAJCP2A3RED1PXAG5C
925,01EYEFYRBB3AH39BMGR2R1YBGQ
926,01F5WJ3V00YX23MJ01735XMQK6
927,01F3WC07AQ6DB1M1XGYZ21M78R
928,01F3WDRE00X0GKER5BJAXVH856
929,01F5WJTCZ4RC1TRJNCMZVRFNVK
930,01F3W1SG963424JDD2RTZJGEKX
931,01F2WZSGVGNMF5N82X0MHVQGEY
932,01F2FQ93P54T259C6M2MTASYXD
933,01F5PMSRE4XXY2S8QEQKNMCJXJ
934,01F5WJTJTCHZM85NRK5DES55ZR
935,01F5WJVJRQ2DAVBJBEZEGHEWAP
936,01F3WEAQH2WTRT4EPJGVMGC8Y9
937,01F5WH57YGRYE1J22VEGPGM8DE
938,01EMTNRBS0XTWMXD390HDHWR2P
939,01F3WD5SEM2CYS4ZC52T3FMS46
940,01F3WETSVEN5JEV35X0VYHR6EZ
941,01F3WAFGHVK0Z05QJ74D8FPKTX
942,01F3WFEHCTVKN0G00R0J3KF2SJ
943,01F3WFMKXVXWD1MCY50P7KV2TZ
944,01F2NSE2M7HV712B6D8M6N4F36
945,01F2NSE2M7HV712B6D8M6N4F36
946,01F5WGD5K9MXJ7A8KJ9S13WRYM
947,01F5WKVV6DY3AS3DA44TMYSKE0
948,01F5N4G8WKSZ55CHTTF4CNS6B5
949,01F5WGZ5B3Z82N03S6NVQQFFQZ
950,01F17AMREW8C9GX9XQADZDYMPH
951,01F3WFPRMRKN42XXW8Z778JNEN
952,01F3WGHM0PW8AC5V1HQCX98BYY
953,01F3J3HFK4NWGTF3Y0118CW68T
954,01F0WPW092V1718NDRVYN74538
955,01F3WHMB8X83F7ZRW97AHHNJW1
956,01F3WH29P6YVP5RJYPXQT2J7PE
957,01F5WNG0T4FSW9KSZQ0EBJ7Y5C
958,01F2TVWXP97F99MQGBNDZMB3YG
959,01F3WJFVJ1BM0EG19K6M5PKBXP
960,01F3PQ9ZP0860CEV0Q77BK9E2H
961,01F3WDNPMWDZSCQ8N4E54QD7R2
962,01F5WNH0MPF3EQWX5ZK22ET358
963,01F5RF0BDFJY27X20B2ZTC5D99
964,01F5WPV5H16XMD9N1CK7EZG43K
965,01F5WQC4KXXXDJ3GMX93VSF2C9
966,01F2P4N9KPVY8C3W95NTE3W36H
967,01F212Z106X98XM2J635VVH8BA
968,01F2PAC8WBSSC3WM2NK0FX2AFQ
969,01F4BQE1X9GE4163M6J9MCNP9S
970,01F5WR8W9TQVDNQ1BJRE4PEDZJ
971,01ETM9S84836XCZE56229PC88A
972,01F5WRFBF9EGFK46KZJY0MZAVX
973,01F5BGB36W2N24Z0VZZJEBFSPY
974,01F5WV6H46Y6MTTS9HCQE26HKQ
975,01F1KQSP4MYCY2GTE8K7XSNH9T
976,01F5WS342HWE1M7YB03Q6J4KV8
977,01F3HKVA1WQ1R9614XWCPDYZHJ
978,01F4AY54G441M9Z8J932AQX5GW
979,01F5BFBWP6P3RSYQGPWT6F1R4E
980,01F3WMKVWJVQATK4JCH5JSNA15
981,01F3DFM6Z5DV0YX3FVXS4Z3DTJ
982,01F5WT14T4CQ0C7HJZYEPYXM66
983,01F2NG39ZXVFN1J5GDA6W9RZEK
984,01F2NG39ZXVFN1J5GDA6W9RZEK
985,01F5WT553AKT9T7FS7D21BCVEG
986,01F3WP3R26DN2QSFMDAA36D4XR
987,01F3QDKASJH0NXCMSTJ8HFCR2H
988,01F3WPDYWBNXGMBYW5KFVQHQBS
989,01F3TEP8CEM1NAWPBM5CX7BF43
990,01F3WNVAV8PDZYXF7YPD6RKN0M
991,01F3WPMCB4HPPMRFVG5GTH718Z
992,01F1YH37VSW1SY9GH750EBSSXN
993,01F1YH37VSW1SY9GH750EBSSXN
994,01F1YH37VSW1SY9GH750EBSSXN
995,01F1YH37VSW1SY9GH750EBSSXN
996,01F1YH37VSW1SY9GH750EBSSXN
997,01F1YH37VSW1SY9GH750EBSSXN
998,01F3WTR9JW0QYEN42MSKWG9MKD
999,01F3W8AX2DMVYJGPTT2MQY4FTP
1000,01F3WVC099CDS0EGB2MFAFFPY3
1001,01F3M6Q1D8NHFQYGGH8G76P6ZT
1002,01F3WTZCCE66QPRXM5VNVGK4KG
1003,01F3WVHQKNGPYXVK3K5ZQ0BWJD
1004,01F2SXYYG748H0YNCN2RJF9BXP
1005,01F3WVGH7A0CWEEHAA5S0GB6WZ
1006,01F28E957NA5JEMBQRM3QSXKRJ
1007,01F3QB2NQRVM6SZ8RN74VZKX7E
1008,01F3Z4R7WCV997EM3N5C3NP74X
1009,01F3WWEJ4KWQ6ZV7B9BNCN1KP8
1010,01F3WW5A4MHJ11SYHMG5KPK82G
1011,01F2TMS7GXYGBENRKQ3CFP9YWM
1012,01F3WX04GB1KCXAZ1ZK191BXE6
1013,01F3WWXK3XF5PNP60QGB6KNRFV
1014,01F2VNG4VPGJCYS8MCB0544GHZ
1015,01F3WWH0TVG0GFDSJ81J21CP7G
1016,01F3WWRPXA4W0KJA2N7P6Y987C
1017,01F3WYC72GGWJ6E3WSZGRFABCX
1018,01F3WRT6MEXEQ9WEM9DPZ3C8EM
1019,01F3H3ZK8Q79P0QJ87Q464VZBN
1020,01F3WX63FQJW2HQC6D0WK8HSFB
1021,01F3WKD6TW9A0WBQDVGV7XY0PE
1022,01F3WJ5VHH0E04EJ0RZHP6F2E8
1023,01F3WZAWDQHKTVXPW2RM010FNN
1024,01F3YTDW8WZZGAD2EJG0BB633Q
1025,01F2VB6P76N8ZYRWRCZKH0T73Y
1026,01F3WY7ZQ20K7G4530MCZ1SSJP
1027,01F3WYTTYFMHTTD1SYFYX1DP7B
1028,01F11YEJ39MBW1J7BQ552K7F65
1029,01F11YEJ39MBW1J7BQ552K7F65
1030,01F2VJBQ6EJ39385K7C2DEGQZJ
1031,01F3WZNX9424CZ1TWCTP3P0K5M
1032,01F3WQWYYNXX2PAASF70Y4BZ82
1033,01F3WZQ785FEYXDTZ74849YV69
1034,01F3WY2VYTS8DAV0EZMH6ZMSR8
1035,01F3VVV1YGRP4VQV3RB9TZBMD1
1036,01F3X0N3JETSDKDY55E5M156VD
1037,01F2WMND3QYZ0F07PJ4HZ50VS5
1038,01F2WMND3QYZ0F07PJ4HZ50VS5
1039,01F3X1J3CRVDS8EMKJGFJF4NG2
1040,01F3X1F5DZ1Y6Q9VVDVEYR06ZC
1041,01F2WRE95ESZN4FG8K7TGE89WB
1042,01F3X13XNE2QG9HRWPBTH6JE22
1043,01EZ652DQ80QYKPJWQTV9BQJTJ
1044,01EYF6MDYK1G8D9HE4WW58S4A9
1045,01EYF6MDYK1G8D9HE4WW58S4A9
1046,01F3X3D66V8MBVPQZM8XAA8X8P
1047,01F3X3S4A6DA34J2RQRT2N5TTC
1048,01F3X36SRA2GB4D12YBENGZVY0
1049,01F3X3RJKS9AGZZAQGAXA15XFN
1050,01F3X4CYH7QEWA26RTT4J44DVF
1051,01F3X4P0M4YXW758A48H5J9A5P
1052,01F3X3ZB40PVJY1QG32P1QH5R7
1053,01F3N1Z26718DMH69N8ZRXBNDK
1054,01F3X3W9QQ0CFB1YCSJ04MPPTA
1055,01F3X57Z9YGPVSK0T9J7V5PHQC
1056,01F3X5B4V05BRFYX459GM0Y7VD
1057,01F2X7XRGDM42VN9M0J72DTSZ7
1058,01F3ERDD16D2Z9FN145BPK8TB0
1059,01F1AVG9QS9APFY04SZ2FXZV8F
1060,01F3ERYTHPKSPSAMMS7N2G2AYV
1061,01F3X807QB8V2ZS78ZVJ39GX2Z
1062,01F3WGWAHG2X91V33T2KE9703V
1063,01F3WTD0AN8ATBWBZBND6BBZVS
1064,01F3X8FJNBJQ3E9SCVE5P7S6V4
1065,01F4KC2DPAAX7WYYH6QVER1YAH
1066,01F3XABNZBEB8W0ED0B6MKRFGV
1067,01F3XA7R5HXJVR7EM93QWYKKWZ
1068,01F3TNQ19J5AB5PK4S4X50DY53
1069,01F49H5JR2A0FKBEDTCJ7G3AMJ
1070,01F3XCX8BM7W35WM7K38PC4DRP
1071,01F3XARF7ZC62H7VANQH172Z0A
1072,01F3XF4C60QDXKA06CG2WJ5HGR
1073,01F3Z5J1YB3TGYWDCJKRRWKQ3W
1074,01F3XGA1GFWK8XK2G1WKD2EC9P
1075,01F3XGWME9FV3KKN8WNC06T7M8
1076,01F3XMQVE6PJFB58ZS41BGHBR6
1077,01F3XAA55B5VFA2XMWGFRGFKVD
1078,01F3JSAK9T874589HDT2QGPZGS
1079,01F3Z6HQ3TTS34MMH1KJ9JJJMW
1080,01F3N6QTYX3YCFKSP3FZFS8F4Q
1081,01F3Y3S4PHRNZZYQ0NRC7S9CFD
1082,01F3Y2ZZYD98W3J1WKZF4PHMWR
1083,01F3Y4XTW478SZQK3Y63DN5M6C
1084,01F3Y4XHPQ5KZQ8A5PAJ87BKQZ
1085,01F3Y59R1PATJM5PEM30VN5KYQ
1086,01F3X2JF3M1BVE0DTYBMAN9BM2
1087,01F3Y68HGFPPX2WBA72ENE3ZTC
1088,01F3Y77KV394JGNZCG3KT7B60R
1089,01F3SBKTH5GBQCWJFCECAX4F67
1090,01F39QM84FFV0C2N89EY7QZ640
1091,01F2ZPFTA3MBBK1C47CXTHNSXR
1092,01F2ZPFTA3MBBK1C47CXTHNSXR
1093,01F3Z6BC6C61V3XW2FFMRCF2BH
1094,01F3YGHJJH8AZK91RKQ94BXANH
1095,01F3Y9HH2309DDCBC5CMCPY8A1
1096,01F3KWZ7SH97JNDD2FT5060FWC
1097,01F4A5H3184WR78KSX5D2C6Q15
1098,01EYQEBKKQ026F3PRHM2G4J1HT
1099,01F3Y9KRAEN96NA7P857GRY6K1
1100,01F3Y6TF0M30WWW0KHVJ9XTTSV
1101,01F3YBCER7QB7RTNS3P4NJ1RN9
1102,01F3YBF6H8QNZSNASBF4F3Y3SB
1103,01F3T7CQRFGGR9X9FPGGSET6GV
1104,01F3YAYHB843VMKR4W3R61QTMR
1105,01F30D9X36ZZ6V4KH5JSKCACFV
1106,01F3Y63NPRWK0EWRT2C2JVEH70
1107,01F49J3RD5S1H5984VRA737ADS
1108,01F3ER6PW5NEYY6WVXBTMJH8Q2
1109,01F3YC7DXRXEGPS399G4R8ATDN
1110,01F3WGTCYD99E5R633CGNE0QYK
1111,01F3N2544WKBC6PZG5DB9CFBYC
1112,01F3YDRJ6QQDBAQNFWVCBCXM7Z
1113,01F3YD9KWCNBFBY83XCXMFQHTY
1114,01F3YDXQQFFB1GDV6V383H6NPZ
1115,01F3YEB8RP84VP5QYG1KHQ25RB
1116,01F3JSMDK0MTT3NS1G33AEVNB4
1117,01F3JSGKPYWQBYZG817XRM02Y0
1118,01F3YF9MSND0PCVBTTH1TXXDEY
1119,01EYJDQA7DAKKWMJT100CKNZGF
1120,01F3DQXYJZJMHFGM16H36BAP1B
1121,01F3YHB95R8YYTQBE4NTVYJFSR
1122,01F3YGZTVHCZR9Z5ZV8S7PJXVK
1123,01F3YHBFQNMX0GE7PXX55M0WJ9
1124,01F3YHV314F58CGWEHHEVJW2HE
1125,01F3YH4R3ZP10YAY33WP5DQD64
1126,01F3YH9C7XQV6AZ9GYRVPD0W71
1127,01F3YK1JBHHC1BTX332VJJ2S6A
1128,01EWADPXW8G4YH22D4N3DH8DJV
1129,01F3N27W5S5GRP68FWVR5DR45N
1130,01F32CPD32KA68S8P36MN9WQZ8
1131,01F32CPD32KA68S8P36MN9WQZ8
1132,01F3X5H1EW8W61NDNBRC88FCBB
1133,01F3YN9XWYJ1JRCDXX418BCG7K
1134,01F3SAFMS8J6M4J69KSEV5PXJE
1135,01F3YNFDQXB3JW67303S996T0M
1136,01F3TGX1NN13WK530M5WDM06J5
1137,01F3YPMX4MBGDPSKRB195RAV39
1138,01F3YNQXSMQQ04CHE0B60K2HCN
1139,01F3YP16PAK3NFAP0T3G3V7YTE
1140,01F3YPD9XWR5KKSVDSCTT4D18Q
1141,01F3YQFATHRYS7KKY37AW7XQMK
1142,01F3YQK7501W3MN145X18N07KE
1143,01F32DJ1FPW5DR32CQTAMVC063
1144,01F32XCBAMK16WRWJ9DCB0YQH5
1145,01F32ZBA9DC6HRGMKXR44FDVCB
1146,01F3YQMREFAVKX27QA4EPE647G
1147,01F49KVYZFFTP0B1VYMBY6E0CP
1148,01F3YS9NXDKR4XBV2293AHVZ85
1149,01F3SKBHG71R8FGQM0DBADEVPP
1150,01F3SPP1BYXBETJ3NWRKB1HFEB
1151,01F3GA51EDHQ6RZE6KQ8W24SDP
1152,01F3Z79H2SMQEMJ6D3WJ0D11BH
1153,01F32QQSTD5EC4W9171MY1JWGS
1154,01F3YS4RCCG9XF6YE89GTP1VQD
1155,01F3YTEQGSWZ8XQ2QNRZN61MYQ
1156,01F3YV1YFY8CHXZMPV0HNFJKRQ
1157,01F3YT6DNAWYMB2SFZV5JQF578
1158,01F3YTZ5KRC9NXVX3J99EDGSZB
1159,01F3F4TKABY5MH9VAGZPB7X40K
1160,01F3YVDQWTA33SPY76VPX48K0Y
1161,01F3YVM4HAZP559DP3TNMDRJEX
1162,01F3YT1XE7J0K17X8PA8EMP51P
1163,01F3X4BS8AVG38WN6XK0SC45W7
1164,01F3YV3SP9AFHZ0K9KSH3SAF1Q
1165,01F3YVP3XP9Z11P17M4D8FPJV1
1166,01EW4X08XJW52ZY0Y8ZN7FA17K
1167,01F3YX8YA3Y2FS5KXR983474DV
1168,01F3YXGANZR1B7D23XHM249T6Z
1169,01F2ZMDD9AA151N75NCEQ9NRPR
1170,01F3JSEPM55N9DSTMMCVGHTX70
1171,01F3NQX1YBH7Q9B21AK3M2V1FH
1172,01F3YZ7X00B9BA4R5981QWGEB9
1173,01F3YZH2GN8VE9DKBJDXX2XSEB
1174,01F34R5YW5CCJ1952F0E1FWVRG
1175,01F3YQEEQ0VE30414SEPA52Q9K
1176,01F3YZK6K4N02760B0ADS8BN3Y
1177,01F48BHZBQM3SWKEXFFJ8N6F9B
1178,01F49Q77V757TGJKRKX8WVH8AC
1179,01F355HTKH7MMQ3BYR7GM7PAR3
1180,01F3Z0VKFPMB6CBTRAK0SHA9HE
1181,01F3Z1HC0D1P6JENAA00QJ2PQZ
1182,01F359P3FH9N0AZ3HJJ1GARP48
1183,01F354E27NX1M0V474JSFV387Z
1184,01F35A1D4YKH6821YSKD3SRS2F
1185,01F35ARM6HKQWDJMAQK7110NX9
1186,01F3Z20Q3RCBH37CC28V2NVSW2
1187,01F35BB3TD31N9ZNZE8KE4QBPX
1188,01F3YZGFYARCJRTWAYA4BT55F5
1189,01F3Z2DY1Q74VFQN3HK8WVH0RG
1190,01F12JA60VTQ07A9MWNFJD1T6X
1191,01F35H2APQPTT1SNWWJW6CMKDW
1192,01F0KDWSZ5K7NXR2HBSS71YBV6
1193,01F35JFS981A04YZEFZZCYC6SF
1194,01F35KBJR7KN54ZKJV2TTCM9X3
1195,01F3Z2830J2GC8754EHB1GFKF4
1196,01F35SAVJR95M31AJTAB323D2B
1197,01F3Z8V86BN0581R5XNMC3KZWK
1198,01F35WGQDKW374DQDHXA1BR82F
1199,01F3YJ4GY7J94Z1CCYMSCEQ94A
1200,01F3TCVZ7C6SAMZSVSX08Z5ZQF
1201,01F35Y4GG9WSXJMVJ0ZH1SEGBZ
1202,01F35Y4GG9WSXJMVJ0ZH1SEGBZ
1203,01F35Y7KV4895SP2GWZP6X3M9A
1204,01F36T9CZ8CFPZKJ35H7ENAMGM
1205,01F3675F6YTSW92HXSMXE63HWX
1206,01F3675F6YTSW92HXSMXE63HWX
1207,01F3722J7GVKBQK0J5QFGC85EF
1208,01F373ZWM3ZH77405MHRM4FRZW
1209,01F3D9CC4410Q6HA3AWWXX6YSP
1210,01F37509K0PZD2H7Y075T4N3ZG
1211,01F375Z7YAG7EG125KP202D7W8
1212,01F3AXKG4HXB321DH9K15999MF
1213,01F3696JTBT958RJQJBTYYFECJ
1214,01F3DA28R0593ERGF4WFRSEQ6A
1215,01F3CB7N7BMY86DMCCFH4DJZCC
1216,01F377CDY5PCRANTCCMN0086BG
1217,01F3601NYEN1XRDSK6RT7Q5KCD
1218,01F377FCJP55QZW4HNBE2F4S47
1219,01F33AJP62ASNV0DYGJ3Q4XPZK
1220,01F377XV4214TCM998B98MWG20
1221,01F377XV4214TCM998B98MWG20
1222,01F371H7B5XAK2TW9B1V27YRQV
1223,01F37BEXF4KK6WSVMBRVVXRGNT
1224,01F37BY4SGSAE1VR2BQ6Q53T7M
1225,01F33EANJBMAY2DM5TV2Q3DKBD
1226,01F37BYZGSVPMCJPF3MNSAVT53
1227,01F2PZ1SGMW88C42FYCECPMJVJ
1228,01F377P1PTPZQTC691WNEQG2H2
1229,01F37BSATQFEJ6GD5QGRY6GWCT
1230,01F37CD8BD9HKZ45HVMQYMFQZ1
1231,01F35KPJG9TC7A04D6DAKCJ15Q
1232,01F2NMQ0CW27ZMYAGE95PZC016
1233,01F3ZBZ06P87DRQWG4D4HCTYXN
1234,01F37CCXRZHF9J1PDTVSZRJDHV
1235,01F376MWAF6C540B0JQ21YSES5
1236,01F37D5FYGEA61CHWAFY6H8AR5
1237,01F2ZKGJKFQYH4N836GB9AVYNN
1238,01F330RM5Z1F599YS069HM4SYF
1239,01F37D1NKENG1J9Q2G5RKV9XZC
1240,01F37EBCBBVF84J1NGRDF3M2YV
1241,01F37E0F8FJGEXHN4KZHWY7GWT
1242,01F3ZBY46FFA4KS0ZFZ6MNNC96
1243,01F358QN83S95V5ZESM1ED5BJA
1244,01F2X7E3EA4EVRBV52JADD2MQS
1245,01F367RNDZMGTTPB79YEJA262N
1246,01F3639C6MB4CJQ1FD1YNYQ7BD
1247,01F37EJ4MMTKV13RFEHZG99V7K
1248,01F376W3HC2QCNRPS9JF68J1J7
1249,01F37ECCT08C6NSNFD0NNDP1H2
1250,01F37FARCBRDVE01S2MDXX60JP
1251,01F37FFS64A800K2FAB6KTKK15
1252,01F37F96D8HJXTKZJ8N7BS7188
1253,01F37G1RW6D75PHJ19X697VV56
1254,01F37HAAECXDRK9RW29E27KGXV
1255,01F37H6WMPGNV9D18H4JD6SMZN
1256,01F3ZBQNHYTTFJFCJRWM028NTH
1257,01F37HPS9HCP978V7VX3SWPRFZ
1258,01F37F7K6KMEJS73VP0GB8ADPN
1259,01F37DTMMH432JT80EJTWNKRB6
1260,01F362FFWN6QT6S7DY20RJF1C5
1261,01F37JHVA44Q12Q9HSCFGXGDTS
1262,01F37J30JQYACARAJ4VMERWBE1
1263,01F37HYWPSDBC95B8DQNFYW3N4
1264,01F34PN0JQ0S2Y1A59EGQWAPFM
1265,01F37JTKH7P563C8VB8S4256WH
1266,01F37KEDWXS07HGRRW2ZF1MXG6
1267,01F37GDQY810Y5SSY3BRM8EXS9
1268,01F2YPW1RHD12H5ZRMHMSQ3JE7
1269,01F37KHXS0F9X4Z9T88YGTDECQ
1270,01F37JRFS8AN3AJ5E7QGFS8W06
1271,01F37KAKWJFKN0ADHY2W9GB5QN
1272,01F365NRWDJJ1XQZQ5A2PNVYFS
1273,01F37JZAVFGEZ33DGFZS1B43BE
1274,01F37M4MEB3JSW8M0DNNSRA7KX
1275,01F37MK9G2PGPC3CJKY05167V8
1276,01F37MAGESW5CVDZ2WWKS10P97
1277,01F35NEJJ55KJ0DKB4GJ8WS1M1
1278,01F37MVK9VDGT9XBSQQBAZX23S
1279,01F378G9HRKTCVJYTEFCN7NN35
1280,01EV738G8JZW1F2CPJGD5YP2SJ
1281,01F37N8E0VPD915TBBS8P6CSXX
1282,01F37NSHSAE81ZFYARNMPZ6346
1283,01EY24HFYQ4DXNWTBH80KHA4ZT
1284,01F37NRV1829NKAX9FMT88X96C
1285,01F37MRNET3Q0EM2690J8HKJVV
1286,01F37J1YTCEDS4BEAM61N8PGHW
1287,01F37NAD7HMSZ8NPYVJ4K7PWX8
1288,01F372DNR2TH2TZ491TPG0SQXK
1289,01F37NVVQAQW0CFM2QQAW8KHJD
1290,01F2XMR4NH5WEMCDGDG2JJCBFD
1291,01F323EXM7XD8VASJVZ898RQ2C
1292,01F1S3BA2XARYSKAZVEVC8TG6Z
1293,01F39160JYXN2Z7JXS8H3J3WR9
1294,01F37P5BTMR0JZVC0P9KAD9YMH
1295,01F37PFYRFDBV9B2PTVFZTGAFZ
1296,01F37PQ0GCGKARAWWN1F5CF2EA
1297,01F37P66PFAN3HJ0XFH719T631
1298,01F37KRN4YMR9JBGE4HCPYEKCB
1299,01F37NWCEHKGDK4AVSVYJN0M2V
1300,01F37PNMRB0JMB7ZPX7WN3JDZD
1301,01F37K0XJQ98M4DB7F7X7G85JA
1302,01F37PBG08KDWY0SQX6CHBK9C0
1303,01F37BMYM7AV0WVXNYC3S5EWSW
1304,01F28Y9DVHG3KV699TZTGR8J6X
1305,01F37QPCZH3KCVSKBYZ3YN67RK
1306,01F3S9F4S7XV2N2EXHPMJG7KEC
1307,01F37QW3VYKJFN5QG3A5SP723Q
1308,01F37Q0PWXDGH25K92G9V9AQAV
1309,01F37QQERAW652RAB3VQC76W7W
1310,01EZPTJNR8NNK8MGZE2F0DJVHN
1311,01F0Q4D241EZSE4068PPQEV6AK
1312,01F0Q4D241EZSE4068PPQEV6AK
1313,01F3C6GE2NYY0SZ8Q1GDP0550Y
1314,01F37S987TH1TFTEBZWC0G7W3K
1315,01F37QGWDBARX0HZHDE5HM3XNB
1316,01F37SB8C3RPDEHZME8HDKBZNZ
1317,01F37SN0RPD71RZY262QQYE9BN
1318,01F35TP6TRB3K6J9J62YJEVK3D
1319,01F371Q6D8HHS54S8YCE48GFEZ
1320,01F37R9YW1QKWBRW9Z67GSDFTX
1321,01F37SYH2CQ83DD0GVYQ3J2CJZ
1322,01F37SX2KYKXD1RD86QQVE6671
1323,01F37THTVY4RA8H7XX7VZGX470
1324,01F37TED77KYZTAVRDCY589184
1325,01F37P0BNY0W9D0SS95NFFGHXN
1326,01F37R17AKGT4XGB4NYEDQVT17
1327,01F37S5X1NSJKTF3ZRFC976KSC
1328,01F37V6MZMMKX2VYJMJNPCK2SZ
1329,01F3ZDXBQT2ZSGMN02P0D8D74J
1330,01F37VS46EMGD4QF11A3MHXR5B
1331,01F37VR6E9V52VN8K38MA34TYF
1332,01F37V90V6G3TH0HS353JXJCZP
1333,01F368N5XY99H83PCPK6CNX84M
1334,01F3D8Q37RW8B7SZVFVMPX8V10
1335,01F37W3FZG1QK5F5D6Q8G5A0CY
1336,01F37WYR89HA00F4T3BAK9001N
1337,01F37VFQ5J89QBD0BNBKDRA11V
1338,01F3559F2KPXH6S9MPYB4CMDVR
1339,01F3DF54N5SNEH55DGH50ZQXG8
1340,01F37XBYPXVA3V3KYP2WT4D20A
1341,01F37WZFW2PZR5XT7EQ7Y66B4D
1342,01F37X73TK77WERGYWEHMA5BY7
1343,01F37XQVHMERFXFYDD8JJQJ1X9
1344,01F37XRQBC1RZ2CM77VZGC1WJ4
1345,01F360D9S5D4JX5XS9RWB0KDE6
1346,01F35FQX4W4F2483P9NRKM45PY
1347,01F37QYF5ZN13G1RG2NC9D2NVX
1348,01F37Y80CBWJHSYEF12Q0EZH7Y
1349,01F37VY799GBV30RR9B6WP6F9K
1350,01F37YHPY87X928P6AKYVJJWZP
1351,01F3547HG3GV54NT7DB3V26T8H
1352,01F380G92340W1K30WNGQC7PNA
1353,01F380H1B39ZZPM1KTGTFSTVBH
1354,01F380J8JTT6RD29ZX55PWCZ25
1355,01F380BCFV61Q6R1MHMX3JFR13
1356,01F37ZM0V4VSR8R2NMNFXJ25Q0
1357,01F380TEZAXF4S9TQDFZYE6MT8
1358,01F380N4GF5BG8CB1YVFDKY68P
1359,01F38189JS353VCE8D4S2RN1BM
1360,01F37YW33Z14CCYAG45XENDVD2
1361,01F37H9EVSVRFW81HBNVJSTWX0
1362,01F3ZFJRR0JEGEH5ZP63WT1XGZ
1363,01F34XKH1SB3E73YHZFGY0NCWC
1364,01F3616VYJSXSXK3QWTZM61XZE
1365,01F38195S15854DAPDCEF6H2V7
1366,01F3813NX4420PCF746PCA89SR
1367,01F380K0YCA2GA4W29G83FDMY0
1368,01F380W40CPQ7P4MRW96TFR1KZ
1369,01F381B5MESBZ1H3TWVSVNE8VX
1370,01F381XRXB8YN2C59SQC9D8SZ9
1371,01F37Z2NQA3P6AV9B7W3Z9JT85
1372,01F381PP7MZ6DRRJ9WTTKG8PYR
1373,01F381X89MTKE7NCFJV2ZE1WAB
1374,01F382QZHYW86ZNZJZSDDQ99BJ
1375,01F382YPT7B8MWEFV3SNRJPTMC
1376,01F382R12D60D6DGEWA299MQ8C
1377,01F382X5V7P3MDNF0QJPY0DJFS
1378,01F3516D2AD0Q90FWYVNZWE5BP
1379,01F2TCZWRZG5Y0QF7Y1KT48J04
1380,01F380T297FQ21DYPK3HAANPM7
1381,01F383TVRC2EW6GR1P4V083HVS
1382,01F42MYJ9V6W6Y425A8CEKD6HB
1383,01F383PCBGD0WX61ZAQPT7ZGKC
1384,01F382GHDHC7G29N1RSE8HQH84
1385,01F3840D38Z77Z9ST998REN7HN
1386,01F3843WK8D6ZPGMS83BW4D7PB
1387,01F383P88TB35QREKXTH9J6AJS
1388,01F380M8247NRM95ZR7CRATEVZ
1389,01F384FRY2GRZXJQ7MS5RDHQRP
1390,01F3ZGFSJGDYN32JJQ274N35HK
1391,01F3ZGEWQAVNY66MDXW0D8E3CC
1392,01F37WKHD14V56RAY1RAHQ3MPV
1393,01F384PCVZ6B1ZA64YFW1WDTMS
1394,01F3851R6V45RQ8X2PS775S01T
1395,01F3JSX4QEVCEBH5E0N3AX6FYN
1396,01F3ZFJ32KGFPFN47C0WNK8DJH
1397,01F386D21X3DSJ09S1228XD621
1398,01F386D21X3DSJ09S1228XD621
1399,01F386EQ69P7RKHN4G162EEP7Y
1400,01F3866B292GG7FT6KDY7STMBE
1401,01F3Y21VSSXW58ZA12MX5VW32S
1402,01F37H27J68A960AQZZFW7S6ZX
1403,01F37W358Z1AT8N8RJJ0VJBBBZ
1404,01F3856BAZV9TFAW34AWMXQHQH
1405,01F387A3XABVFW0SN6V301MZM9
1406,01F386SGC1MY1K3D47ERKVS1GS
1407,01F387NXY37VMB5M4CSCQ4D41H
1408,01F387B8J9FRREFTRC4CHNR2YH
1409,01F3882CKZRFHPBNVCM89ZR9DB
1410,01F3886ZDX9P7NMJYW45V0ZPWF
1411,01F387FWB3R9PPJPCWH47E8QAY
1412,01F386RDJV8782NEYK7TY625P0
1413,01F386RDJV8782NEYK7TY625P0
1414,01F386VMAFA4AGGFWQVPPKWWGS
1415,01F37WF285KBR3CXXHP22X92FG
1416,01F38BXNB060M2G09QDA7K1M3W
1417,01F3856JZ1NTK2FJS3XRMP89YZ
1418,01F380XFGAJWJV9WT7X358K557
1419,01F38D0V0GYK93EJ9VXJECXY7V
1420,01F38DGED2ECGNGJRKYVYQKN7P
1421,01F38DY75KMMEKABHMCX50467D
1422,01F38DDCWWJRBN8EPFK1XRC47F
1423,01F38CKVBSRQEZWRDXV9F2H0BA
1424,01F38E4FM1MT4641AT45BE4RAT
1425,01F2XX79GT6B7JWGWACJEQ1B5J
1426,01F38EDNB2E8NVZK8NS7S4ZMYE
1427,01F38FD6Q4DCE101VVYKKMCH2E
1428,01F38DD7JQT9JS3FFFPSPZ6YKK
1429,01F38FPJD8X2642WHF5MGBEVWH
1430,01F38ESC1NRWVD0PRZFQ2EEQY2
1431,01F38FT8Y06HXNFDR7TE6NTM1B
1432,01F38GPM2K7HGDRAZ2163VWD2Y
1433,01F38GJM787N12EMDK3GTEGS27
1434,01F38G6X34E1HHGG93WW18S0GP
1435,01F37S8XKR0E21PCS0KFWMD4ZD
1436,01F38H27DYBC71DDCS46EPNJGJ
1437,01F38GVTRSZ0C7MXHH93KZA1AW
1438,01F37F468JS65CJ0GSFWEMF5KF
1439,01F38HF0RDV3ZTM1V0YF0WRMPA
1440,01F38G1GPRFQCYPBEDVA4X3VGF
1441,01F2PDC7SGBJSGFH43836PWKQK
1442,01F37GSJHW3DWXZ6834C415D77
1443,01F38HXFCPX2MGWFP9AEZQ2WZ2
1444,01F3ZJEMZ4BV3X4PKKA6Z3G5C8
1445,01F38HXXD160EC8SCFNG05DAVZ
1446,01F32NTZ7XEC95BRR8HEYXYW62
1447,01F38JGQST7X0GVVKX9119EFYX
1448,01F38JCKQV4CKE9A9HV5XYT5T7
1449,01F38K2RKB86NJYPFR4R95MR5Y
1450,01F38K2RKB86NJYPFR4R95MR5Y
1451,01F37QQ3A8RF8BBKJX8FMSMEQF
1452,01F38K2EBQ38JA1CXZGJ152CB5
1453,01F38K2EBQ38JA1CXZGJ152CB5
1454,01F38K9J9AEGZ6HF53XCVDK3BF
1455,01F33AAA60B3CTFAFPE28H44FW
1456,01F38MAWJ74YGWQ2GECGSMHQ98
1457,01F38MFX7PED17Y304QNYMX98N
1458,01F38MRJXNNFBX8V97V3VQ342Q
1459,01F3ZJGRPRY9KNMMYQQ1N5CQA7
1460,01F38N6KAHYCBJ2PT5FG4SHTRB
1461,01EV8M4XDKRFYZ4CNVE154PT9X
1462,01F38KV1Q7F2S8R0AWMWRDDPQE
1463,01F38NHGKZKGY81AVM1MV0ZCKX
1464,01F3ZFWGFAEB4VNG9C2N5SC7MB
1465,01F38N9XT537YSPD72DN4D77D1
1466,01F38NSBAHW5TJ3N69BJBR5NAZ
1467,01F369TQ0NR38C4521AWQ90GTP
1468,01F38P73V3CB05PRFAZCA76EJF
1469,01F373R4YRAMFAWPEX9NSYYMJ2
1470,01F38PDDW47JQ7T4P93CMMC9TJ
1471,01F37S3GABX4367XPTMVNZAVRD
1472,01F384WCKEMTQ6C7G8002F087C
1473,01F36EN5C220SSYN2KYDCJGB5Y
1474,01F38S0V5BV7HWBCJGJ2330K1Y
1475,01F38RQZ1F1014KED1RF0VPMYA
1476,01F38SGSDJTXMAPX9R8NQ7E2KV
1477,01F38SAKYEEY7X35APV2F85PAT
1478,01F38TA9EAJBF1WZJTTJM2V8Y1
1479,01F38SQJYZ3FV7XRGEST0Z2M3F
1480,01F38V3GXD5R0WS62CKV3SBNGF
1481,01F38T5GKVVY903APW7KANFYCW
1482,01F38WJ84Q7X18CDF58MS49XMD
1483,01F38PVX6H85JA73DWV0AG66HH
1484,01F38VK051E4P9K5M77MWQY5MS
1485,01F38XKXP7GQWTYBSVY2JQKC2G
1486,01F38YH77S39W7CHGZ9CRFWB5Q
1487,01F34MRZWHA1QC44J7EE8QDHY5
1488,01F392ZWQQHABQW7VWM622MN3C
1489,01F37GQMFK8WC0V3BEK0SGZXMV
1490,01F394PB0BK4HMPDB74YFR5KHC
1491,01F395B0JBDQQPBTR8D693T8D6
1492,01F3971YEKD24TQK6YPSJX9VQF
1493,01F39ABKBJXCAZFFQKS9D6MJBN
1494,01F3Z78SAHYJHN0N794YHP6CVG
1495,01F39CC5SFABAJ9SEYSM6AG9Y1
1496,01F39DFWP838JMY2DR1HK1724D
1497,01F351EH3B10F9MG0T2R3F86D7
1498,01F39E4MCFTJGC7CX7M0VQR189
1499,01F39E792V5CWNNGKG8DH61C62
1500,01F39EKZJQ6XSHFFA43Q5NYXQX
1501,01F39EQ6Q551ECD0YRRERWM6P8
1502,01F37Q79XTMQDF7VFPG2PB6WPG
1503,01F39EQKG41DP9AET7SXRG9HRQ
1504,01F39F5P4HTJ8YQT30TS3WNZQB
1505,01F39FDVN86N9868DMW5HATY10
1506,01F37SPNEVB69J97TSG0SCA7B4
1507,01F3ZM736F1EXAQ9531YRT3P64
1508,01F39H4WR409BAED5G743NCGWX
1509,01F39E47JGFWXDBYAY30AMMSSN
1510,01F39E52KN3X83Y6CW0YD8WYHY
1511,01F38BHTEF84SXPE2NCPNE5N3J
1512,01F39H0CXD03QKS9VJ35K4TJ2B
1513,01F39J9FC46JKEDCMTK0XN30QA
1514,01F39J7JGXY0M5KPYTS6ER8TTD
1515,01F32CHVY4WK57X247CK9W10CY
1516,01F39JTMQV9X5E6FZQGCP91RJ9
1517,01F39K9DWFAJ0H8WTJ6MN8VY3F
1518,01F39KNHC5WB37QF7PDDWH931Q
1519,01F39KSQ5JGQA812954A0JZ835
1520,01F385ZPZF84T8Z68J1BF92T8D
1521,01F39NBA2DT46JPSKZ889PDTPY
1522,01F30TMEDF4V0K3KR38RW2JM3D
1523,01F39N5MVZ9N9TMMVCJGDE14BK
1524,01F39MHAZM8RRC7MQFPHSE5DEZ
1525,01F32TYGZX98WK2MK3A5A73WNM
1526,01F38QR8X1GB1ZP1R99PJMX76W
1527,01F39FKG8YAS7VX6D4AZG721EF
1528,01F39PQMH3P95JDN3GWC8N37BG
1529,01F36793CP5TN17V1RAXZ5KDHA
1530,01F39Q1XEEWNZCH3EGVRM53F45
1531,01F39PRVP3ART493TZQD9QC0ZN
1532,01F3864WXG7ZDNFJTGDNSXTM83
1533,01F39MM6E903MG33HXN4CNP81S
1534,01F39QEV92QZC16SFTMC187PKA
1535,01F3DJYFK0KGNJ6MRV0YQVEY1Z
1536,01F3519BTRQN3K5D26HT185332
1537,01F39QY7JFZETNM1ZNF2KMVG21
1538,01F38BNKB00N7GR744PNK30D2X
1539,01F37XTGR4QXHXBDBX9JQHTB7X
1540,01F39QTKEHRYBWH1QEJTS6Z469
1541,01F39Q46ESKB3RWQDFS52P2P3H
1542,01F39R9RBPGSXMVHVE18WEACX6
1543,01F39FVBCP7ENJTNA7V863HWVX
1544,01F3746QCDDXD1FNK0TDA5XQFM
1545,01F39RHC60DKWN9HAE5399WSZ7
1546,01F38JRJJA3CZYHRV6DKCVNQ6C
1547,01F38HVMRQTE2KW9K91N57KFS0
1548,01F39Q1EHV8MQJNVK5YQ4HK7DD
1549,01F39RW23N70EMYMEWJ54A9K02
1550,01F39RTDATBHJAB11YNSR0NK5M
1551,01F39G0G1GEK1GSY23EQFF3926
1552,01F38EG2W1ZSGBZGPW4SHTCRFP
1553,01F3DJQT3GQ8GDR2C9RYQPE67Q
1554,01F39P885B7YW2V1KNVHY3MKG6
1555,01F39S2FBFVJNDSR9RAG4YY2QY
1556,01F39SAP3V2EWE800GE8V05KTT
1557,01F39RKRXKXNP2H0MWJCTMSZT4
1558,01F3ZN6D92Z42T0FCFT36D9CM4
1559,01F39SJ68VBYQKKCMXBT4FBJGH
1560,01F39SYV1KXYSGJ9NMGHFFKEAJ
1561,01F0VCX2Y6VENTA2C32S07J219
1562,01F39T2BBGMYSRNHP3KQ0AZABJ
1563,01F3YWV00B0AH3TFSEQ7VN523Z
1564,01F39S75ZZXDGK6VBE1H7G8XR5
1565,01F38X385ZFW43NKQADBQJKY9T
1566,01F39V1AR9WH220PXQPSY2GZHT
1567,01F39TYNEY5W7RYGFHRX6QZMFF
1568,01F39TF59KVGY32M77JY7EF8ED
1569,01F39V8GX0N5S8ZYSKNDCYJVN8
1570,01F39THHFDE9R2DHYENEVHYGV7
1571,01F39VE7C6XFPQHQ51WNXT8234
1572,01F0X6TEFVVEW3ZY2H1G8CF9X4
1573,01F39VV70048KSBE2D3MHZ1Y36
1574,01F39QH4J8R4JXW1CAN4M6JDT1
1575,01F39VFER6BHNZEYQNKDGJ0QNE
1576,01F39W4HP6ETABBCPWWS48F6Z8
1577,01F39V189T9M72W5WCA06STYNH
1578,01F0WK9ZWVCA14TZ21K5B8Y3WK
1579,01F39XB9JRN0GXXQ8GVY4S6FJE
1580,01F39T3PFW715B6DFYG3PF6M9F
1581,01F3C0HH8GSEHG02CS0B1E5H1Q
1582,01F38F64RZ69D6V892V72J1GKZ
1583,01F3ZEEJFNGWHPK715YX8GZE94
1584,01F39XREPNZM185DB67Q1A4S6V
1585,01F39XJKT40Y5Y2RZEDFMHNTFF
1586,01F36HXC4T0WXF1D2A4QWK2HVP
1587,01F2DCVTSNZ423Z14HDAKRBPM4
1588,01F39XEFD84ZX93Q5WQEDFQZBQ
1589,01F37NVC3X4CYPDXKZZV0NFEAN
1590,01F39Y1TSWCGPKW751R9C7NM39
1591,01F39Z28DP1NDFJDWCAKHYRVAD
1592,01F3DYQNDR7FKAD31PDRXCB159
1593,01F3818VFFMTP2TCH04PKDA2A1
1594,01F3A094VH0820W76B7ETRPY96
1595,01F37K3T1MJJP4FMA6P3NVDDAJ
1596,01F2R986S021T971CM1AV01ZQN
1597,01F3A0K920VS3K3AS7WJAG2M9Q
1598,01F3A0Q0HY4DYS1APD74K1WMC6
1599,01F38N4K668EFBNG5M79V62XP2
1600,01F3A0ST3WASWEVGBVDS2AVXSS
1601,01F42YF82037GCBCA9V2N8MCHH
1602,01F3A0QBS9T8DED3BXQ5GW26S6
1603,01F3A13Y9RC3PSGJ5YSQHYFKBA
1604,01F38QNFTHCABA0257SAYGSAK6
1605,01F3A0W5WDSN0F0G5XVVQCBKNW
1606,01F3A11PMBD8MK9BJ30G8F15Y2
1607,01F3A1TNJJZZW9PPDRNRXJ5DSR
1608,01F38SSGCDWG04XYPWXJ35XAX6
1609,01F3A1ARABQVMK4Q38A7TP7WSF
1610,01F3A1X3435QCNC0FW593J594Y
1611,01F3A0K13GV1VNT93EG1BR80EF
1612,01F3A1XGRBCPQ70RJ707D5M6Z3
1613,01F2MBKY2ZMFH9XYANC0FKJH8A
1614,01F236B1TCMKC5JPRNSE3KD7RJ
1615,01F371EA7VANABN841SKGC3PJT
1616,01F37Q75J4DWP0NB4K7TRGNJCZ
1617,01F3A2P1NZTM6NMPGTC3J4DVVE
1618,01F3A2PB5SPHHPFK9VVJYDHR2W
1619,01F3A2ST9G3VT8VPT3SHCESZ2S
1620,01F3A2YXS11V5WQXJ3HHCJGAYX
1621,01F38KHD70KX6HW676BM390NAN
1622,01F39M23P5NE63QBHKRS0N3521
1623,01F3ZPKB83DQ9CBQ9EJ1XXKT0S
1624,01F39YN0SY1SC9ZA39MVZ6W791
1625,01F3A3W33WX5J2G8AX1MV8GCC0
1626,01F3A199JMPS14APNGZ62QSV8V
1627,01F39ZC50ETEW38FMYKNTR6AWS
1628,01F3A4QM38JTD1GMGK8RW7WZDV
1629,01F3A5K3Z5J2B77V0XBTP1B7Q1
1630,01F38K1GPWCDDE9E7WAF9JVTV9
1631,01F3A5SASDS7MJ08JC02MRGJKN
1632,01F3A58EFJEEW8W324Z3013XT1
1633,01EYSFGB0ZMJR7XK4H7YVXN6GZ
1634,01F39JADYMMP4M7SK9AQ5AVABP
1635,01EYSFGB0ZMJR7XK4H7YVXN6GZ
1636,01F3A687HNB3VFRJY3QBEZ8XXY
1637,01F38QBQJ0ECCD5BX2E8J3C7ZZ
1638,01EYG945MNFSV10M991RX7ECXR
1639,01F3A2Q39JV5GY09EVNWTE2878
1640,01F38E5FNWZCHQV71480E0XGWT
1641,01F3A738DXNH6P4RZCR6FXV402
1642,01F3A6TS9VWQH5DAWDMXSTKC7C
1643,01F2XTW99JJ4Y1QRZ4E46XRN71
1644,01F38N1W789KTG8KT0VPMH2KTB
1645,01F38ETQ524C70PCN9ZKH16Y89
1646,01F3A71X9M7QYXZDXQYDMTJ85P
1647,01F3A758PANNQQXAMGEH8190WN
1648,01F3A5EPC1CNNQPS5GZA2BZWJ5
1649,01F37W0NNXM28KS0TTNXK7294T
1650,01F3A0D0RZR8K2N3BM2W03YJC2
1651,01F39V0T4JV5GGN2BES0EVAYDS
1652,01F3A8YMTHFC4F5QRBXB96NWXR
1653,01F39YFBFFZ96N5ZVCQH5QV4KN
1654,01F3AAQ0M2338B9QA0EGB17EAC
1655,01F3DNNS0TTNEQFBCNHB6KPA15
1656,01F33F2JW0Z35V20S53BYV3ZXD
1657,01F37XMW18MRQJ7TFXFY3YCDKB
1658,01F3AAY2B88YB0N6VZXES9TBG1
1659,01F3ABMMCWCXS0HEG1B2KZ7E8W
1660,01F3JSVQG34FY7CET9QNMZGSNA
1661,01F3ACJC95FD49AHRKC623DYZW
1662,01F3AA6263GX5A5HZJM8V4GRS2
1663,01F3ACR29N66907X6YJ96KN1XP
1664,01F3AD64XFFR0ZVX34B4ZJHG7A
1665,01F3AD4Z78HNVS2Z3DW1H48Y3T
1666,01F3ADB6DXN3W4004B176JPSW6
1667,01F3AD91G2ARZV8WWFH7DHRJ1T
1668,01F3ABNQHY2ZAQTW0XFKHK7F2P
1669,01F38JT8YADB8TE1H033CQP4F0
1670,01F3AEZ8DNP1TE6R71CG0JY1DY
1671,01F2VAWRMGVHJWB4G44DK5HWA1
1672,01F3A5AP0WVBXXG5SPXX6MG3BS
1673,01F3AF7VPYYQHDAR0QX093BJ21
1674,01F3AF2KAYKTDHN2DD4BGQ8YTA
1675,01F3AFGY6YPV1JCWHQF42KDPDF
1676,01F3AFN8SASPTHP8J36GAPNC3P
1677,01F34YCNP9PJGQVMHWHD9WFACN
1678,01F3AH2ADKMYQJBG5H98TP43SD
1679,01F3AH50V5VMZFEXY3KRKGZ1FA
1680,01F3AHKJPST9QGKRN0TX846FV9
1681,01F3AH8SGKZ0VMQG5WFYS3C93Q
1682,01F3AGWQ9N31S4BWZ68CWH8V3W
1683,01F38AGW789D61RPX1T3FQ8MSR
1684,01F3AC7KQ24F6C5PBT90ATJD2B
1685,01F3AH5KNQWJBZPNJRMZQV3RRZ
1686,01F3ZQ603S3S47VKESFHN125BY
1687,01F3AA384EQQXEZH2EMPH583A1
1688,01F3AEH6VGX53CX2EWC2HB8Y5P
1689,01F38BFG8ET0XJA51ZF9SBRNYW
1690,01F3ACNZ2TJ2GB85TQ0DQH74BH
1691,01F39X00VBKJMFSRQ11DAX2BNE
1692,01F36D4YGW658CQMPM330A3YTS
1693,01EXMJYPWRX2Z2ZP2TKQWVAZVP
1694,01F3AKM8X8WGPDY7V206GW54JR
1695,01F3AMBT5AGT0HRTJ6JMXF4GCB
1696,01F3ANP2Y93WAPH735YJQD0R4X
1697,01F381FG37B9JSNBH7GYT8WY76
1698,01F35JDQPJYKK0X0V45GJPMMBZ
1699,01F3ANZRVP2Q4K9T0H40QNWMMJ
1700,01F3APNQPYKCTX9BX31FKRM669
1701,01F3APYMMD4TMJZ5T8PXRS8405
1702,01EXW0SPJGEMTCA2ZB9PEZESDN
1703,01F3AQ387FH5ZFRQWJXAJTKBH1
1704,01F3APX7N5HXWB09CRVRRFVQTD
1705,01F3AQBJS63VPHG15ZDBQB8G0Z
1706,01F3AN216BTDCF6XHB4T6SX887
1707,01F3ADDCYMWHAB9W82XT2S9GEZ
1708,01F434GX7MHP80M222H3Q0WNFM
1709,01F3AESN0J7117KH6QM4X4MCVZ
1710,01EV4A9GAAV35QQGW1XFB8NY2P
1711,01F3ARS0ZHR5CAPMQB427ANB0C
1712,01F3AS48QK3XHQRKY654550YTS
1713,01F3ASTP412V4KRC7FP86SZWHZ
1714,01F3ASXJMEAWH6FCWQ9N0K4HDE
1715,01F38D20333D8GQCN0MBCRV5Q1
1716,01F3ZRN8NGYJ21XYNDQWS6XT4S
1717,01F3AWBK8H0RD7MP0GGBHAJJWJ
1718,01F3AWJ8GR4YY077A86CTDK19B
1719,01F3AQPQZBCDFSYWQA0VCDJ347
1720,01F0R7SWXZZHPM6TAMA3WDR12H
1721,01F33B6NH51MYMSBZHWZCCV4QT
1722,01F3AY6WEJSVW375V8GF2T6HCZ
1723,01F3AXXYRM4FV6ZRN21DT7MDKT
1724,01F0NP4EQ6TKMH9T7B4J47FX80
1725,01F3AZD84E6VFC2XN0J9AMKZRX
1726,01F38FC9Q9ZMMGCX7XWBWCT6H1
1727,01F39P53KZJ1DBN7793NY1RMFA
1728,01F337VMS3DQPRA848SYTCQ7X0
1729,01F3AZT3034WVVKNG83KDN6AQN
1730,01F261PZGX5G46DHRQFB8ZP3PS
1731,01F3B20H7ACZTZFPPYW0Z5962H
1732,01F3B15K6CBZC2FH8DH68WFGJ7
1733,01F2XQ5YHCHBX2FEJCQJN16B9G
1734,01F3B45P9M1G0TM1257XJZY579
1735,01F30XZ379CEGS91W56A79BYT9
1736,01F3B59X9VEE95324SCSBJNMTW
1737,01F3B5CKH32HXC7T117ER8QXFH
1738,01F3B5M1F5XWBZJ8VJ6TRHXD4V
1739,01F3B5YYXPHEK051J8AVW8HX0N
1740,01F3B69NG51HTV1ZBHE8DD77CE
1741,01F377WGTCHCSJTZHT201AZV10
1742,01F3W5QDC6QQWQFDAKX669HTR1
1743,01F3B8224EHXR56WG77SXB6WTH
1744,01F3B8G1YS0AWHCP80WRHP2ME3
1745,01F3BA78BH7YP49KWJD0EPZTCD
1746,01F3BAW860SFCDCWM0BP5GYY2J
1747,01F3BASSDBG9KX9YCPK3ZMM4QC
1748,01F3BB51J1BCQMA9K5W0XA2JE9
1749,01F0P1NMXF02A6Q6NW09E3HDMD
1750,01F3ZT502PBHPGM80SQRVQMHDF
1751,01F3862N1CKVSJA0NA17E32V6G
1752,01EYJ2V75EA3N46F8GS5M1GAV8
1753,01F3B7C53AVFCHQ7V9RJPE20TQ
1754,01F35R6K70BAXP6QCB4MTRK6SK
1755,01F1826ZV48F16B1WGK7KPN3M0
1756,01F3ZV0VQCXT3076SHYYC4DFC2
1757,01F3ZVJM4H1KZCCS6EHCP4E8TG
1758,01F3ZVJJAR18VP7BNGZRG3RAKQ
1759,01F3ZYQM4E2DP38DAVA8GW27JS
1760,01F3ZXK1T2K27SCCM6RA1078XA
1761,01F4000P2XSQD64GGVKV4N4QF9
1762,01F400PZ3Y07T28YHCCNRDN3PQ
1763,01F407KYRZCVSBZAXRCDS5S317
1764,01F0WJETGS7W88MF5VZ7BCTKS3
1765,01F40HXP3ES32DKF4MPKQGEQAJ
1766,01F40PK84KH9QEJM014JXAPZPZ
1767,01F3YT55Z8GX2VAKE1C12RHFD8
1768,01F40KC8KJNAW9N34Y0GZ1R2Z0
1769,01F40STVJSQFDY4MEFWRFBTMM9
1770,01F40TD0QW4W7YMCTE4XS9VHS7
1771,01F40VAWYX9KH3X4FFDXBHSJY1
1772,01F404QWS7ENV14S2Y5RWN8XZA
1773,01F40WBW8QVVXK39EJ7A5360YK
1774,01F40VYQ40ZHK123YRM0H7DXZK
1775,01F40WDSE0K57G5MCKNTE7RBJ9
1776,01F40WXJWGPXGWADZM9EW8K0T7
1777,01F40XQ9T2J0M6YZ0VE5DX2C6R
1778,01F40Y5YE1ABXD14M1BT2N0FX2
1779,01F40Y08G4DRDS06H047RKZWPY
1780,01F40VZYRMB0TNNHYYP66QYZTK
1781,01F3BERM4VRYP3NNWV18H69NEM
1782,01F411ADY9DQ4GYJBQDZRDRDGK
1783,01F3JZJKCS0XRY9AZME0YHC5NE
1784,01F3W4N3EYVSSFR4K0VBE6ETZX
1785,01F3ZJ70WBCP1HQFS3HJHJTD2S
1786,01F412RJY6E5DNC37N9VWFPTST
1787,01F4132N9C8NTZ3CQA8V5ZTGN5
1788,01F3ZSNAXNMK95W38Q5QE5G9N2
1789,01F40XRMP1MK01BZT4H0W4S24W
1790,01F414GN2EBK7YM1GDP0EEF965
1791,01F43ANTSV58RWB889PVGEADZ5
1792,01F3XGGMSFPGN1ATV604QF0XEB
1793,01F416FEEP8VM367GEQVWNB8DM
1794,01F3TEFZDZEN2Z4JDY2YKA90TM
1795,01F4123Y7TB1H3EM6DCZ0X3M7A
1796,01F416H8EEPZAR9FXQ8APNMVYD
1797,01F4175HXAN55VWK68STDQY98M
1798,01F40XGV9V9E6YN5Z3RRNG7ZWG
1799,01F3WTFZ2H2B3XD0SDDHPWHX7K
1800,01F41938C5DSJST2C6X24XZC81
1801,01F4193BSVKPV4D90HV7A12V4E
1802,01F419JEWG29C4DAR0AQDA1NB7
1803,01F419DTB5MAGN8SM7AVX7JE95
1804,01F419D7WEFAC3FXM1AV23693R
1805,01F418H1R2EAVT5FP5ATWYB9E7
1806,01F419KG83GK8FPR9Q8V2P83NQ
1807,01F41ATK1E04PVDQFZXHAW7NYD
1808,01F3S5QVJ33C9TYYJMS7A2XT73
1809,01EWF6P6C962J3YABYNZDK6W6V
1810,01F3ZXQRJXAR4YVTRT07X3F0EK
1811,01F418X3N1WG2VNEWWSSTTRFD9
1812,01F41BRWMX8P1PMVQTQF7NM9GJ
1813,01F41CR7H8Q7ZGRKHNTR8DTF6D
1814,01F36BAAQPHPMNH8WDEYYE1WF8
1815,01F41DB5HMAVAG946FMGV91XTH
1816,01F41DB5HMAVAG946FMGV91XTH
1817,01F41EXYYR1DWZP982JPQGRMXY
1818,01F41ESKJ5NDAAM157HRTHGK5P
1819,01F43C89S1MTVVPYES1NFB8GBY
1820,01F41FWB5HS9258Z5BH4KTHSB7
1821,01F41FJPDZ8XVBPWHK6JXPQZ7S
1822,01F3Z290Q9TFJNJ62200VE8Z0H
1823,01F41GJH5QXKNBCK29HQT8MJQF
1824,01F41GED2K0E4C57JRMGQQGWR9
1825,01F1P6VYMK8XVJQ36R68T30RQM
1826,01F41FFTZAN6KA67FT3YS1PFHM
1827,01F41FFTZAN6KA67FT3YS1PFHM
1828,01F41GJ4ZHA9JMFYYQ7YYG58CZ
1829,01F40VZ24S9B2K5VX8D4T3SWMQ
1830,01F40VZ24S9B2K5VX8D4T3SWMQ
1831,01F41KE2XV5DS0JCSZXX7XSGGW
1832,01EVT3KQ6Z9VWSP1M0RSVN4CS9
1833,01F41N30FGCXXFXDBR4KVYS835
1834,01F41NEPG2RKZ6ZRPQMVJKZHRC
1835,01F41MC7RH7BM0G66C257B83PW
1836,01F41MC7RH7BM0G66C257B83PW
1837,01F41NQE8W7N1BCVN0NAHXGKG8
1838,01F0XW2HC7SG4M14JPFCFH9YBF
1839,01F41R1XDP3Z0Q0V5S59K9RQTM
1840,01F3H7KR3HJPXS7XCHHPK3A26T
1841,01F3H8KZJMQGHDZWVPWBAS5TXC
1842,01F3GDPD85YS3SJ6M1V33TZ53S
1843,01F3H90660NCAHPMP4WVNA0E8M
1844,01F3H6JNGXRZQY3BPJ0VQ2XKVK
1845,01F3HADWK9MKTGY44YCRE57KH7
1846,01F3F1NWWHNA3F1TDD9GEKFKKS
1847,01F3499HYX89636CDQ3XPFCYWV
1848,01F3DE8YQ3SA9FZY4HTDT2XP33
1849,01F3HBQAGJC9V7VMH5TSFRNGTE
1850,01F3HC6PGCMA540M9SY4H17WPV
1851,01F3FZM4NWJZD7W1XMXBABCHNW
1852,01F3HD6FF0BYF86A185HKZFKKT
1853,01F3EQ8B8NZKX9NTW6CQ15NE33
1854,01F3HDHDT4BQFMBTQ0FWQ7X46S
1855,01EV6K9HNP5MCF3FKR4RX24X2P
1856,01F3HD89NNDRGQJ3PZBVHRYEEG
1857,01F3HE228539TS61KJVNECFE64
1858,01F37J76B2FW65VMG9EPBQ52XD
1859,01F3GDKCCQJ52TCGEC6XWSQW9S
1860,01F3HFX28QA9498S5C5VBGK129
1861,01F3GWET7K8V31A4MSQGJQJVEY
1862,01F3HFSP11NZZTP1SG8BC4VDVQ
1863,01F19N5P9E7XPQM9ABY61CT579
1864,01F3HH0K04C1NWCW18WY3F38GS
1865,01F3HA69DHM6AH867KC2NA0ENB
1866,01F3HHBXHVMKHWTS3T4XB42QGQ
1867,01F3HHG67XPYFREA67GGK96PJ1
1868,01F3GEBJ4M4XX3BQFZVCGN7JGZ
1869,01F3HHW0EDD7RBNKZ40X2YN0RQ
1870,01F3HJNZ4KQ00ZRC67TAFJFATQ
1871,01F37ESG3CSVPW2AYVHAC6Y41N
1872,01F3GC9848AX7N2RMH7JPCXM70
1873,01F3HK3K59M4ZKB3VSJ5GV973D
1874,01F3HHY87SK9WJ67FMZXHW6HQ0
1875,01F3HJX7Z93CV9NPF39GKG7MMH
1876,01F3HNKZ7MZ4EG52M53GCC0F7T
1877,01F3HNHRS0FB23MNVYFST0QQ7Z
1878,01F3HPASJDN04SJ5CT4S3TMEWF
1879,01F3HPBX5R52X2N7M3B7M96JK8
1880,01F3HPS9BQY5S1GYPMZ11NSHDC
1881,01F3G3P7WSE0DHV8VV1WXK1VEN
1882,01F3HPQ6MER1SCP8FSH05RD6VA
1883,01F3HQABVZ1G2DK50VZKMEJPK8
1884,01F2K8274GXWJCQBYNGQNF3RBK
1885,01F3HPZJ4RY6QQRXWBDJ6NDW9C
1886,01EZ6MVWFQ6HXC8VS82SHMAVFB
1887,01F3HRFHQC1541A53KJFT16BX4
1888,01F3HRH2ZH7XY1T624BHW08AXH
1889,01F3HRHME6M03ZHZTNZY138Q5K
1890,01F3HRZFRAH7BSN3J0ADCZ12VF
1891,01F1MDRX0VJA2TGF2FXGFTKP40
1892,01F3FENYE0V0K78T1D3WCV9614
1893,01F41RGH1K27AJEF1SZ0HZW12G
1894,01F3HQPJ02KQY1K4HTRSZY4MHV
1895,01F3HQZKGD91WYXFVB8VDCFWX2
1896,01F3HSVM40XBP4EWQ433TNBPJE
1897,01F3HRHHPKK2QFJ3CDER8MZ0SV
1898,01F3HT6D69HMNG0QHSY7CSM6X7
1899,01F3DCEYNB4W3MK9496FR4440J
1900,01F3EXRX7MNW3AV5P17MTAZABP
1901,01F3ERY3A71A00Z0KFEMR781GW
1902,01F3EY0QKTFMXZ29TRXFS4CTX6
1903,01F3EZ0XR1M47HBD7FXH7WMT2Y
1904,01F3EPSSX41B3RZ1A0B8B0PQXG
1905,01F3DJSPWX52CZX5YCVSZKESRT
1906,01F3EZWQ6PG1QHYH5HS38E3RYJ
1907,01F1PJY8GG4WMHXRN8CJQTNWAY
1908,01F3EZZ64JPRDGRJQ87DSGRNQB
1909,01F3EZ55Q5D48ZWF4CAMVW7Y9Q
1910,01F3F1BGJ6NR4SZXN5KTCQGBYX
1911,01F3F19CF05M41JT5A4G7N9V2V
1912,01F3F0BY7ZK970NVJ8JCPH1RXQ
1913,01F3F1VSEAKK1C9JN1814YBW21
1914,01F3F1SVZFN6K1DCCGH97F9P2P
1915,01F38D2XMY93X1B6W446050EAV
1916,01F3F1706H1XTJN2KKHEFNV8F2
1917,01F3F2X4X2R6EVVWQFS3QY2D06
1918,01F3F32SCVFQ197S2EXJTEJH77
1919,01F3F2VPA6QHDWEJCXFJTX4P9Y
1920,01F3F2N42GETCSXFDF9X9VGXYN
1921,01F3F3JRZF51HXB8QC2GNBZ4G1
1922,01F3F3DNGKPQY9MDBJKY00SMAG
1923,01F3EDKE07YN11G1E76TW69K59
1924,01F3F4B6R9YXNM61F27VTBP3NM
1925,01F3F3DX0X5QCJ9M5NCZ2CY05V
1926,01F3F43RG8WXDTD9DGT4X196K6
1927,01F3DBGRQJDS1WNP34FMH7PARD
1928,01F3F2NPVQC3T9FCE5Q77BPCVJ
1929,01F0JMZCR52PC8DVHM50V6RCH0
1930,01F3F5N0R73GT2ZK29RYPX1NTQ
1931,01F3F4NMTH8PR8YAGZWKN04XXP
1932,01F3F5KW1D90BAVTHV7FY3DN1Z
1933,01F323P8HVRVGARBKR8WG4Q9VT
1934,01F3F5DVH4CKENZ1BTGBRFRST5
1935,01F3F58KN1VDZD1TZQHRAE5YAF
1936,01F3D2810HS2CXAQPESR4C1CX3
1937,01F3F60Q80R5FYGGDWC822GNZ2
1938,01EHDZ706WCQRDWGEC8DDDVJSQ
1939,01F3F72V0V5P3ZH22N8QG4N29G
1940,01F3F6V8FRRS7XMBSP0KQVJGBE
1941,01F3F75417XJR1VM1QW6ZM5CWZ
1942,01F3F626RNYT5TVJQENRV8Z6HV
1943,01F3EVVDMYPC5DF1YS70GTK6H8
1944,01F3F7FH0T58MFVPM8WYF4B6KF
1945,01F3F7BP4SH4W6BG43Z3N5ZX6Z
1946,01F3EMYBADFXKW1563ADDV30W9
1947,01F3F7WQCBS93MPV0ZK1XVTYN4
1948,01F3F72M4YQRSYWN5K35AN2DR6
1949,01F3F7V21ZTCHX6P9MA9DGVPP2
1950,01F3F826WQG7VV840WFWJ9S9EB
1951,01F3AW2XM6J4XJ5JT7CJTSY98X
1952,01F3F8AMTQK988NZ6AAZTYTKHK
1953,01F3F72XT2FBYN8KMHWNZ9S1AS
1954,01F3F8MRFN0TX15J1QNGSV9C90
1955,01F3F97D2Z1DCPQQE9F0J9JYEC
1956,01F3F8VEFJ99SY37PYS9SRC9C1
1957,01F3F98M56AXZZQNA0AS071MME
1958,01F3F9HR6W655H0CV4AMPXXDX5
1959,01F3F9RF23RE30NC0V5ETTYND3
1960,01F3F9NN3BQ990G8S0AY0Q5RY8
1961,01F34E0T30KBDDWPCP6YZ88FYP
1962,01F3FAWBYW2C156DFC76RD4CV0
1963,01F3FAZZGK7YDYQMPBD471C78C
1964,01F3FB477Y0FX2DZSYXGR41MNX
1965,01F3DCR56CQ1WYG1YW7QZGH734
1966,01F3FB27BMFXS5Q9ZA2TH3WGZ7
1967,01F41FKYP4BT5V0HJEB3E2CR9C
1968,01F3CDNAWRDXYS4CVD8KKDEJNY
1969,01F3FB6ZYSYPY7W7WNMR3TRVCP
1970,01F3FB6AB5SEG1FC38YKQW5MK0
1971,01F3DFYXWC6G47SSWP3ZJRCZ83
1972,01F3F4GKFHQYRWFTQFKC3M4BE0
1973,01F3FADM34NPBQJYCJ037Z9WSX
1974,01F3FBK9GQP102JG446SV4AP3Q
1975,01F3FC85FJNP9RMFNWDZ8HXBPC
1976,01F3FBZPMNHSZDF0GXAX9MRKV6
1977,01F3FCDM3WH91MCVR78SMFAYFQ
1978,01F3DN11YTY9ZQQFDWECT7XD10
1979,01F37BNVSPHE4PWGVWC4WD19DB
1980,01F3FCYY0WWQP5NAZCKJQ47E7B
1981,01F3CYGTMDKCV1R7A4FM826CM7
1982,01F3FCPEHSJ44QRFW7Z5QH26EG
1983,01F3FD6K5DGES8NWZAEP7R7V2N
1984,01F3FCC5EH8AJAHJ4PG56Z8GSB
1985,01F3FD8PMJC4EFZPW755N6BMBJ
1986,01F3FDEQKEPWC09KB1QS1FHHB0
1987,01F3DB20SB4QWKFNXB35R97E9Q
1988,01F361MF99J6AQRBT7EBK4R578
1989,01F3CY334298FGHHXNPBCSVKVJ
1990,01F3FEGY6SHH1VZZCGASCAVKQC
1991,01F3F6C9K6TN1R385VK13CVGFJ
1992,01F3FDRTR3HA8WMZNAF4QTF330
1993,01F3FF6VG1KWTSR788F4VVGXTV
1994,01F3FFKTD995R28FC1SZ2PWGTS
1995,01F3FFHJP6JY0Y7800G8EWGDC3
1996,01F3FFRW9TN163XTGZZDR5K563
1997,01F3FG7Y28CFNYBTDXP08JPYNG
1998,01F3F984SRWW5WJFS9X9WYFAJJ
1999,01F2K35BZ8QY8Z9M40FVKTS8M4
2000,01F3C8P73PE9A15AF3F6XQNYTN
2001,01F3FGXB7802DY4V1RQ6FNFCZ0
2002,01F3FARJDVZMH6D1ZWGTM4T53J
2003,01F37TY4DS2FPRBS7FR3KQRPGN
2004,01F3FFGQR34AT5TXF60DGPRRYY
2005,01F3FH95A5A69PB63605GPSHPG
2006,01F3FH18Q9NHJ80WCYWSTFSPR2
2007,01F3FHR67Q1G3NM6WTF6A61VD1
2008,01F3FGY6133C5H4J5JYHCJS58N
2009,01F3FH5EQ93CHY17MA8KKYC604
2010,01F3FHW7VR6V3EG0BSZ4KGG737
2011,01F3FEF0YFTGPCM99BNRCCGJ44
2012,01F3FJZDWZ9VAS56E7KJPBFMRV
2013,01F3D7K4C7BRM8A60JTYVHT0P5
2014,01F333RCF5GYZX45A3E3DFTM8J
2015,01F3D9ZBWK8DH8P16G8HYNRK83
2016,01F3FM9G08W0R2E23TRGSF2YGW
2017,01EMRBS3K3M57AE8DKJ6B9TB5X
2018,01F3A279PFH38GK7FQFWA2QVQF
2019,01F3FJQTQ3GF4ZXEQKF5NE7XD7
2020,01F3FN96MYBMHN5WF578GHKKBN
2021,01F3FN0V54ACF7PGYZJQA392CX
2022,01F3FNPHY5KAXYRPF59G0AJ03P
2023,01F3FNJAW6GFZWJF8PJXGZF97H
2024,01F3FNVY2H7Y3ZAF7RCRCZQ75H
2025,01F3FPBE07BCFCK4TDJY5KPG3T
2026,01F32JDJMRM8PEJRYSQMWPGWBM
2027,01F3FQ4N8SVVBVMAND7XX58HX2
2028,01F2N0WJKN4D39Z53Q5EHF50BG
2029,01F3FQSECF4YQYFBDF4KGES1H3
2030,01F3FQSEQS8WRP3NWV707YJM4R
2031,01F43D8EC8YBTFKKSAXR951FVE
2032,01F41K7XNCSMT6PGETD94TBANX
2033,01F41W05HFW2BXY8CR843XZGX9
2034,01F41WJDMJ0JHCCPYJDE4YS2VR
2035,01F40YE4RE8837TZ2327ZSV35B
2036,01F41Y9C3V35ZK3G55JDZ27Q0N
2037,01F3ZAMXQ0HZ6DT6T8APYT2YF0
2038,01F42019FS830BFDWJGMYN042X
2039,01F42061KYFPH0NG87RV7TEQK9
2040,01F33DX85TEHQEV11FMTE3NETQ
2041,01F3SYTPDTWH89F8NC3T6EF7BQ
2042,01F422J12QJ8TV2DK0SZ3HNTTP
2043,01F422Y69SX73FB6JT2N0MDWCM
2044,01F4235VY0F5RDXSAR58508Z4G
2045,01F423SZ9FSTMN5FK735FEQDDJ
2046,01F423STC5MJ9HZHCSZ3K8KGJF
2047,01F424R1KHJ40TCJ9N0QSS9JHS
2048,01F4256DFKHEAK2XP56E7KEX3K
2049,01F43EBAZKC0VJAND6SHXDA1EE
2050,01F427AXPK4574SAFK4FZ2DXSP
2051,01F43EB3TW425AWQ4VYTC0HCAP
2052,01F427VWHSYBF73G2G0X475MG7
2053,01F428M0XBG5N8TPF32CNWH3GQ
2054,01F429HTGKHJ2Y066RJZT7351V
2055,01F43EHJQEGQ69VMYRW4EXQ0T7
2056,01F42ADS5H44PFAYFKTH336QJD
2057,01F3HD7VEA4A7YJTCPTXBR8VC0
2058,01F42AXQ0DFZWKP404BJTXEEAT
2059,01F42BFWB81GHZYXETZC893VCN
2060,01F10CQME9YXAG7RG7C7R0KMZF
2061,01F43BGFX83HS1Y864MH6BZMBP
2062,01F429P8P4MVS2TRZP6S6XX6CP
2063,01F42F2ANMM0XDBRGKE4FR2CRD
2064,01F43G1G0ND6J6DFCA60MSNV4Q
2065,01F43G1AER8M8BGAX5VA4AJQ8G
2066,01F43GEMBHYG4A0KJP5CX9TSRE
2067,01F43HQ7GZJDPZGQF0QE3XD5W9
2068,01F43HKAVW3ES43KXJBQKE6DVG
2069,01F3YV9BS929EQM0YZ4RB78AS5
2070,01F43JFSM57PJNDKR9VJ771SJZ
2071,01F43JSQMK5JF7DVEWZF01FCG5
2072,01F420NPX25884Q2FS75EFN6EC
2073,01F43KYYAYX1Q0GVGBJJTW2WXJ
2074,01F43N10EC89A5SBA29S9WFPCG
2075,01F43GB5XH3HSGG36HDZJP4DTP
2076,01F43PWF1KJ47PNSP90483X3VH
2077,01F42DTH7J3NVQETQH7VWQJG1H
2078,01F4238KFZ2QWR0HKCN7E1315X
2079,01F43QBDBA44C2MB5QEY640JT1
2080,01F43QZS0WJAQ6Q4TCBFKE771R
2081,01F43RAMC6PH0KK8QBEQM4CCYP
2082,01F43RSXBJ3FD7CGSYNDW0FD3B
2083,01F43QZ6E57C471C7R40KG660Z
2084,01F3W384A74Q8467HNHHS6N21J
2085,01F3ZY7XHM0KBDR3V8XTE4F1S2
2086,01F43T6519TS2WHM38BW6MJQTQ
2087,01EREKN12A7XCY024BVXAJS2TQ
2088,01F43TX0B9T48PZZSWADB3G74H
2089,01F3WYG67Y46FT0JPFWAEM4DR6
2090,01F43RQ0853XN8A3R5M99DZPXV
2091,01F43SXW9N2GWABJ9M6M25XEZ2
2092,01F3C7XXEMZS09W523462T3VEA
2093,01F3DRVKVZDVAA9NC6JY7YV50Z
2094,01F3HS2SE2PG3DV0SCSAAKPD8C
2095,01F3CYS90G34V6NR1H22YQ1C61
2096,01F3DXQ6XZ2ZMTFRGWX7BC3DDG
2097,01F3DHBKXX82PHAJ35C65T57YX
2098,01F3DJJPMAQPH5WCV1YAA01PEB
2099,01F3DFKQMNR0D560NR9R5RXTKJ
2100,01F3DXJ5YWG77X50WH1SBQMVDA
2101,01F3E18JXEMN3G0YF61GC2MGRJ
2102,01F3E15B5MKGH35VTPG0APKD2Z
2103,01F3D1JD7P62QF9F8VF25ZQGNB
2104,01F3DN23BKHDZ41A6S1P83QPEZ
2105,01F3EHA1GRSGTDFKWHMY9HE1XX
2106,01F3CTMCMERJY1P6HGFD2225YA
2107,01F3EK5FA407PXV2EMZQ2B88PJ
2108,01F38BR5R3F8A1GD16P2ZCV6ZP
2109,01F3DMXCR47PZNF0WH0NFDE41K
2110,01F3DJAKCJTAZVPCKZ8EX2A4QE
2111,01F3CPWWXBXGK2YJXNHCHGFQAQ
2112,01F3EMXV2W274E3HY1YBQJJ0VH
2113,01F3D9HPE5X21X14QCH3HKJA2Y
2114,01F3DSY4YTF634H168VAQVVESB
2115,01F3ESKFHFEM1Y2SBXJAEWK1V2
2116,01F3ESTS5WK6Y09PGYKCYM670D
2117,01F3ETH81FV4PK10R3QCRPTTA4
2118,01EY6493CP0F97ZGF8P7DB4NA7
2119,01F3DKPV7BB69P6B3R12N2HXN2
2120,01F3EWNNHTJDAF1HWK9H0HP52B
2121,01F3DRX2JYEMHX8BQDPNJHR1RM
2122,01F3CN1JTMBHNN2HGZDMT056CE
2123,01F3EQ4BHJGX8PJ4HWNFXAQHXA
2124,01F3HQD27YKZFWBMADC51SWCK2
2125,01F3HTDH3Q5H6RVTVAF7RCXGE8
2126,01F3HV2T3J91MM67HPJ7K9KFVX
2127,01F3HVFX6T82DYVY8HPBRFZT6M
2128,01F3HF91MTM5D01B0D48NMMVR9
