<svg width="75" height="75" viewBox="0 0 75 75" fill="none" xmlns="http://www.w3.org/2000/svg">
<path d="M67.3891 63.7585H26.7946C25.0643 63.7585 23.6618 62.356 23.6618 60.6256C23.6618 58.8953 25.0643 57.4922 26.7946 57.4922H67.3891C69.1195 57.4922 70.5225 58.8953 70.5225 60.6256C70.5225 62.356 69.1195 63.7585 67.3891 63.7585Z" fill="#9C6836"/>
<path d="M64.7295 46.4585H57.1375C51.21 37.571 51.753 28.2366 52.8637 22.7818C53.3255 20.5135 54.2501 18.3746 55.485 16.4171C56.4589 14.8733 57.0213 13.0451 57.0185 11.0848C57.0099 5.80961 52.8328 1.40192 47.5651 1.12726C41.8058 0.826851 37.0417 5.40792 37.0417 11.1014C37.0417 13.1167 37.6396 14.9912 38.6667 16.5602C39.7774 18.2562 40.6162 20.1147 41.0711 22.0905C42.2985 27.4212 43.2037 37.183 37.0188 46.4585H29.318C23.937 46.4585 19.5745 50.8209 19.5745 56.2014V59.2632H74.4724V56.2014C74.473 50.8204 70.1105 46.4585 64.7295 46.4585Z" fill="#C48D58"/>
<path d="M50.4879 11.0848C50.4913 13.0451 49.9283 14.8733 48.955 16.4171C47.7201 18.3747 46.7955 20.5136 46.3337 22.7818C45.223 28.2366 44.68 37.5704 50.6075 46.4585H57.1375C51.21 37.5704 51.753 28.2366 52.8643 22.7818C53.326 20.5136 54.2507 18.3747 55.4855 16.4171C56.4589 14.8733 57.0213 13.0451 57.0185 11.0848C57.0099 5.80961 52.8334 1.40192 47.5651 1.12726C46.2278 1.05745 44.9461 1.25372 43.7634 1.66285C47.6749 3.02412 50.481 6.76233 50.4879 11.0848Z" fill="#BF8247"/>
<path d="M64.7295 46.4584H58.1995C63.5805 46.4584 67.9424 50.8209 67.9424 56.2014V59.2632H74.473V56.2014C74.473 50.8204 70.1105 46.4584 64.7295 46.4584Z" fill="#BF8247"/>
<path d="M49.6799 45.3449H37.0113C36.3968 45.3449 35.8984 45.8433 35.8984 46.4584C35.8984 47.073 36.3968 47.5714 37.0113 47.5714H49.6799C50.2951 47.5714 50.7935 47.073 50.7935 46.4584C50.7935 45.8433 50.2951 45.3449 49.6799 45.3449Z" fill="#9C6836"/>
<path d="M43.578 53.504C43.578 65.3761 33.954 75 22.0819 75C10.2098 75 0.585938 65.3761 0.585938 53.504C0.585938 41.6319 10.2098 32.008 22.0819 32.008C33.954 32.008 43.578 41.6319 43.578 53.504Z" fill="#8DD0F0"/>
<path d="M22.0819 70.5219C12.6984 70.5219 5.06401 62.8875 5.06401 53.504C5.06401 44.1204 12.6984 36.486 22.0819 36.486C31.4655 36.486 39.0999 44.1204 39.0999 53.504C39.0999 62.8875 31.4655 70.5219 22.0819 70.5219Z" fill="#DBF3FF"/>
<path d="M22.0819 36.486C20.8603 36.486 19.669 36.6165 18.52 36.8625C26.199 38.5042 31.9754 45.342 31.9754 53.504C31.9754 61.6659 26.199 68.5037 18.52 70.1454C19.669 70.3914 20.8603 70.5213 22.0819 70.5213C31.4655 70.5213 39.0999 62.8875 39.0999 53.504C39.0999 44.1204 31.4655 36.486 22.0819 36.486Z" fill="#CCEEFF"/>
<path d="M22.0819 35.4481C21.4674 35.4481 20.969 35.9459 20.969 36.561V41.0396C20.969 41.6542 21.4674 42.1526 22.0819 42.1526C22.6965 42.1526 23.1949 41.6542 23.1949 41.0396V36.561C23.1949 35.9459 22.6965 35.4481 22.0819 35.4481Z" fill="#8DD0F0"/>
<path d="M22.0819 64.8553C21.4674 64.8553 20.969 65.3537 20.969 65.9683V70.4469C20.969 71.062 21.4674 71.5599 22.0819 71.5599C22.6965 71.5599 23.1949 71.062 23.1949 70.4469V65.9683C23.1949 65.3537 22.6965 64.8553 22.0819 64.8553Z" fill="#8DD0F0"/>
<path d="M30.8956 45.8032C31.1806 45.8032 31.4655 45.6945 31.683 45.4771L34.8495 42.3105C35.2844 41.8756 35.2844 41.1712 34.8495 40.7364C34.4147 40.3015 33.7097 40.3015 33.2754 40.7364L30.1088 43.903C29.674 44.3378 29.674 45.0422 30.1088 45.4771C30.3263 45.6945 30.6112 45.8032 30.8956 45.8032Z" fill="#8DD0F0"/>
<path d="M12.4809 61.5309L9.31435 64.6974C8.87947 65.1323 8.87947 65.8367 9.31435 66.2716C9.53178 66.489 9.81674 66.5977 10.1011 66.5977C10.3861 66.5977 10.671 66.489 10.8885 66.2716L14.0551 63.105C14.4899 62.6701 14.4899 61.9657 14.0551 61.5309C13.6202 61.096 12.9158 61.096 12.4809 61.5309Z" fill="#8DD0F0"/>
<path d="M39.0249 52.3911H34.5469C33.9317 52.3911 33.4333 52.8889 33.4333 53.504C33.4333 54.1191 33.9317 54.6169 34.5469 54.6169H39.0249C39.6395 54.6169 40.1379 54.1191 40.1379 53.504C40.1379 52.8889 39.6395 52.3911 39.0249 52.3911Z" fill="#8DD0F0"/>
<path d="M10.7306 53.504C10.7306 52.8889 10.2322 52.3911 9.61704 52.3911H5.13897C4.52442 52.3911 4.02603 52.8889 4.02603 53.504C4.02603 54.1191 4.52442 54.6169 5.13897 54.6169H9.61704C10.2322 54.6169 10.7306 54.1191 10.7306 53.504Z" fill="#8DD0F0"/>
<path d="M31.683 61.5309C31.2481 61.096 30.5437 61.096 30.1088 61.5309C29.674 61.9657 29.674 62.6701 30.1088 63.105L33.2754 66.2716C33.4929 66.489 33.7778 66.5977 34.0628 66.5977C34.3472 66.5977 34.6321 66.489 34.8495 66.2716C35.2844 65.8367 35.2844 65.1323 34.8495 64.6974L31.683 61.5309Z" fill="#8DD0F0"/>
<path d="M10.8885 40.7364C10.4536 40.3015 9.74922 40.3015 9.31435 40.7364C8.87947 41.1712 8.87947 41.8756 9.31435 42.3105L12.4809 45.4771C12.6984 45.6945 12.9833 45.8032 13.2683 45.8032C13.5527 45.8032 13.8376 45.6945 14.0551 45.4771C14.4899 45.0422 14.4899 44.3378 14.0551 43.903L10.8885 40.7364Z" fill="#8DD0F0"/>
<path d="M22.0819 54.9156C21.9006 54.9156 21.7192 54.8715 21.5538 54.7823C21.1933 54.5883 20.969 54.2118 20.969 53.8026V45.8908C20.969 45.2757 21.4674 44.7778 22.0819 44.7778C22.6971 44.7778 23.1955 45.2757 23.1955 45.8908V51.7393L26.6956 49.439C27.2089 49.1014 27.899 49.2439 28.2372 49.7577C28.5748 50.2716 28.4317 50.9616 27.9179 51.2993L22.6931 54.7325C22.5082 54.8544 22.2954 54.9156 22.0819 54.9156Z" fill="#8DD0F0"/>
<path d="M13.3993 15.5834C12.7848 15.5834 12.2864 15.0856 12.2864 14.4705V1.11294C12.2864 0.49839 12.7848 0 13.3993 0C14.0144 0 14.5128 0.49839 14.5128 1.11294V14.4705C14.5128 15.0856 14.0144 15.5834 13.3993 15.5834Z" fill="#F3F2FF"/>
<path d="M21.8594 26.1211C21.2448 26.1211 20.7464 25.6227 20.7464 25.0082V7.34652C20.7464 6.73197 21.2448 6.23358 21.8594 6.23358C22.4739 6.23358 22.9723 6.73197 22.9723 7.34652V25.0082C22.9723 25.6227 22.4739 26.1211 21.8594 26.1211Z" fill="#F3F2FF"/>
<path d="M5.16243 30.8704C4.54788 30.8704 4.04949 30.372 4.04949 29.7575V7.34652C4.04949 6.73197 4.54788 6.23358 5.16243 6.23358C5.77698 6.23358 6.27537 6.73197 6.27537 7.34652V29.7575C6.27537 30.372 5.77698 30.8704 5.16243 30.8704Z" fill="#F3F2FF"/>
<path d="M30.6902 29.0898C30.0751 29.0898 29.5767 28.5914 29.5767 27.9762V20.4071C29.5767 19.7926 30.0751 19.2942 30.6902 19.2942C31.3047 19.2942 31.8031 19.7926 31.8031 20.4071V27.9762C31.8031 28.5914 31.3047 29.0898 30.6902 29.0898Z" fill="#F3F2FF"/>
</svg>
